{"created_at": "Tue Oct 12 08:17:57 +0000 2021", "id": 1447838939000233990, "id_str": "1447838939000233990", "full_text": "EMERGENCY FOOTPATH CLOSURE: 081/6/3 BOWLING GREEN LANE, TALGARTH, BRECON is in place from the 12-14 Oct 2021 (9am-5pm: 24 Hrs Restrictions) on behalf of Welsh Water, while they do works to a renew a leaking stop tap.\n\n@PowysCC \n@DwrCymru \n@TrafficWalesN https://t.co/wn58L75XQ9", "truncated": false, "display_text_range": [0, 253], "entities": {"hashtags": [], "symbols": [], "user_mentions": [{"screen_name": "PowysCC", "name": "Powys County Council", "id": 26273960, "id_str": "26273960", "indices": [218, 226]}, {"screen_name": "DwrCymru", "name": "Welsh Water", "id": 43493542, "id_str": "43493542", "indices": [228, 237]}, {"screen_name": "TrafficWalesN", "name": "Traffic Wales North & Mid #KeepWalesSafe", "id": 369973577, "id_str": "369973577", "indices": [239, 253]}], "urls": [], "media": [{"id": 1447838930766868485, "id_str": "1447838930766868485", "indices": [254, 277], "media_url": "http://pbs.twimg.com/media/FBfB1ihXMAUmNtK.jpg", "media_url_https": "https://pbs.twimg.com/media/FBfB1ihXMAUmNtK.jpg", "url": "https://t.co/wn58L75XQ9", "display_url": "pic.twitter.com/wn58L75XQ9", "expanded_url": "https://twitter.com/powyshighways/status/1447838939000233990/photo/1", "type": "photo", "sizes": {"thumb": {"w": 150, "h": 150, "resize": "crop"}, "medium": {"w": 543, "h": 717, "resize": "fit"}, "large": {"w": 543, "h": 717, "resize": "fit"}, "small": {"w": 515, "h": 680, "resize": "fit"}}}]}, "extended_entities": {"media": [{"id": 1447838930766868485, "id_str": "1447838930766868485", "indices": [254, 277], "media_url": "http://pbs.twimg.com/media/FBfB1ihXMAUmNtK.jpg", "media_url_https": "https://pbs.twimg.com/media/FBfB1ihXMAUmNtK.jpg", "url": "https://t.co/wn58L75XQ9", "display_url": "pic.twitter.com/wn58L75XQ9", "expanded_url": "https://twitter.com/powyshighways/status/1447838939000233990/photo/1", "type": "photo", "sizes": {"thumb": {"w": 150, "h": 150, "resize": "crop"}, "medium": {"w": 543, "h": 717, "resize": "fit"}, "large": {"w": 543, "h": 717, "resize": "fit"}, "small": {"w": 515, "h": 680, "resize": "fit"}}}, {"id": 1447838930909401089, "id_str": "1447838930909401089", "indices": [254, 277], "media_url": "http://pbs.twimg.com/media/FBfB1jDWEAE2Cer.jpg", "media_url_https": "https://pbs.twimg.com/media/FBfB1jDWEAE2Cer.jpg", "url": "https://t.co/wn58L75XQ9", "display_url": "pic.twitter.com/wn58L75XQ9", "expanded_url": "https://twitter.com/powyshighways/status/1447838939000233990/photo/1", "type": "photo", "sizes": {"thumb": {"w": 150, "h": 150, "resize": "crop"}, "small": {"w": 680, "h": 491, "resize": "fit"}, "large": {"w": 1279, "h": 923, "resize": "fit"}, "medium": {"w": 1200, "h": 866, "resize": "fit"}}}]}, "metadata": {"iso_language_code": "en", "result_type": "recent"}, "source": "<a href=\"https://mobile.twitter.com\" rel=\"nofollow\">Twitter Web App</a>", "in_reply_to_status_id": null, "in_reply_to_status_id_str": null, "in_reply_to_user_id": null, "in_reply_to_user_id_str": null, "in_reply_to_screen_name": null, "user": {"id": 941063243455516672, "id_str": "941063243455516672", "name": "PowysHighways", "screen_name": "powyshighways", "location": "Mid Wales.", "description": "News and updates from across the Highways Team at Powys CC. For service requests please use our website or call our contact centre - 01597 827465.", "url": "https://t.co/LaCZGEgCXC", "entities": {"url": {"urls": [{"url": "https://t.co/LaCZGEgCXC", "expanded_url": "http://www.powys.gov.uk/en/roads-transport-parking/", "display_url": "powys.gov.uk/en/roads-trans\u2026", "indices": [0, 23]}]}, "description": {"urls": []}}, "protected": false, "followers_count": 1558, "friends_count": 28, "listed_count": 3, "created_at": "Wed Dec 13 21:52:16 +0000 2017", "favourites_count": 143, "utc_offset": null, "time_zone": null, "geo_enabled": false, "verified": false, "statuses_count": 2691, "lang": null, "contributors_enabled": false, "is_translator": false, "is_translation_enabled": false, "profile_background_color": "000000", "profile_background_image_url": "http://abs.twimg.com/images/themes/theme1/bg.png", "profile_background_image_url_https": "https://abs.twimg.com/images/themes/theme1/bg.png", "profile_background_tile": false, "profile_image_url": "http://pbs.twimg.com/profile_images/941067897593614336/eao0ENhQ_normal.jpg", "profile_image_url_https": "https://pbs.twimg.com/profile_images/941067897593614336/eao0ENhQ_normal.jpg", "profile_banner_url": "https://pbs.twimg.com/profile_banners/941063243455516672/1513203171", "profile_link_color": "1B95E0", "profile_sidebar_border_color": "000000", "profile_sidebar_fill_color": "000000", "profile_text_color": "000000", "profile_use_background_image": false, "has_extended_profile": true, "default_profile": false, "default_profile_image": false, "following": false, "follow_request_sent": false, "notifications": false, "translator_type": "none", "withheld_in_countries": []}, "geo": null, "coordinates": null, "place": null, "contributors": null, "is_quote_status": false, "retweet_count": 0, "favorite_count": 0, "favorited": false, "retweeted": false, "possibly_sensitive": false, "lang": "en"}
{"created_at": "Sun Oct 10 07:00:20 +0000 2021", "id": 1447094630286336003, "id_str": "1447094630286336003", "full_text": "ROAD CLOSURE REMINDER | C1131 From A465 To A417 Via Ocle Pychard, #OclePychard, 11th October 2021 (3 days) by Welsh Water for new stop tap installation works, Residents access only, please see the diversion #Herefordshire https://t.co/Pdygpm9tFm", "truncated": false, "display_text_range": [0, 221], "entities": {"hashtags": [{"text": "OclePychard", "indices": [66, 78]}, {"text": "Herefordshire", "indices": [207, 221]}], "symbols": [], "user_mentions": [], "urls": [], "media": [{"id": 1447094623629893633, "id_str": "1447094623629893633", "indices": [222, 245], "media_url": "http://pbs.twimg.com/media/FBUc5KXWYAE5yAr.jpg", "media_url_https": "https://pbs.twimg.com/media/FBUc5KXWYAE5yAr.jpg", "url": "https://t.co/Pdygpm9tFm", "display_url": "pic.twitter.com/Pdygpm9tFm", "expanded_url": "https://twitter.com/HfdsStreets/status/1447094630286336003/photo/1", "type": "photo", "sizes": {"thumb": {"w": 150, "h": 150, "resize": "crop"}, "small": {"w": 450, "h": 300, "resize": "fit"}, "large": {"w": 450, "h": 300, "resize": "fit"}, "medium": {"w": 450, "h": 300, "resize": "fit"}}}]}, "extended_entities": {"media": [{"id": 1447094623629893633, "id_str": "1447094623629893633", "indices": [222, 245], "media_url": "http://pbs.twimg.com/media/FBUc5KXWYAE5yAr.jpg", "media_url_https": "https://pbs.twimg.com/media/FBUc5KXWYAE5yAr.jpg", "url": "https://t.co/Pdygpm9tFm", "display_url": "pic.twitter.com/Pdygpm9tFm", "expanded_url": "https://twitter.com/HfdsStreets/status/1447094630286336003/photo/1", "type": "photo", "sizes": {"thumb": {"w": 150, "h": 150, "resize": "crop"}, "small": {"w": 450, "h": 300, "resize": "fit"}, "large": {"w": 450, "h": 300, "resize": "fit"}, "medium": {"w": 450, "h": 300, "resize": "fit"}}}, {"id": 1447094626213679104, "id_str": "1447094626213679104", "indices": [222, 245], "media_url": "http://pbs.twimg.com/media/FBUc5T_X0AAcFgv.jpg", "media_url_https": "https://pbs.twimg.com/media/FBUc5T_X0AAcFgv.jpg", "url": "https://t.co/Pdygpm9tFm", "display_url": "pic.twitter.com/Pdygpm9tFm", "expanded_url": "https://twitter.com/HfdsStreets/status/1447094630286336003/photo/1", "type": "photo", "sizes": {"large": {"w": 1754, "h": 1240, "resize": "fit"}, "thumb": {"w": 150, "h": 150, "resize": "crop"}, "small": {"w": 680, "h": 481, "resize": "fit"}, "medium": {"w": 1200, "h": 848, "resize": "fit"}}}, {"id": 1447094628331704322, "id_str": "1447094628331704322", "indices": [222, 245], "media_url": "http://pbs.twimg.com/media/FBUc5b4WUAIDr7a.jpg", "media_url_https": "https://pbs.twimg.com/media/FBUc5b4WUAIDr7a.jpg", "url": "https://t.co/Pdygpm9tFm", "display_url": "pic.twitter.com/Pdygpm9tFm", "expanded_url": "https://twitter.com/HfdsStreets/status/1447094630286336003/photo/1", "type": "photo", "sizes": {"thumb": {"w": 150, "h": 150, "resize": "crop"}, "large": {"w": 300, "h": 150, "resize": "fit"}, "small": {"w": 300, "h": 150, "resize": "fit"}, "medium": {"w": 300, "h": 150, "resize": "fit"}}}]}, "metadata": {"iso_language_code": "en", "result_type": "recent"}, "source": "<a href=\"https://orlo.tech\" rel=\"nofollow\">Orlo</a>", "in_reply_to_status_id": null, "in_reply_to_status_id_str": null, "in_reply_to_user_id": null, "in_reply_to_user_id_str": null, "in_reply_to_screen_name": null, "user": {"id": 226492562, "id_str": "226492562", "name": "HerefordHighways", "screen_name": "HfdsStreets", "location": "Herefordshire", "description": "Updates on road, bridge & open space work, 9 to 5 Mon-Fri. Report problems online: https://t.co/qjOaMXfBsy. Emergency/urgent? Call 01432 261800 (24/7)", "url": "https://t.co/5yLf7OK2Rb", "entities": {"url": {"urls": [{"url": "https://t.co/5yLf7OK2Rb", "expanded_url": "http://www.herefordshire.gov.uk/roads", "display_url": "herefordshire.gov.uk/roads", "indices": [0, 23]}]}, "description": {"urls": [{"url": "https://t.co/qjOaMXfBsy", "expanded_url": "http://Herefordshire.gov.uk/report-it", "display_url": "Herefordshire.gov.uk/report-it", "indices": [83, 106]}]}}, "protected": false, "followers_count": 4174, "friends_count": 365, "listed_count": 40, "created_at": "Tue Dec 14 08:43:28 +0000 2010", "favourites_count": 259, "utc_offset": null, "time_zone": null, "geo_enabled": true, "verified": false, "statuses_count": 8906, "lang": null, "contributors_enabled": false, "is_translator": false, "is_translation_enabled": false, "profile_background_color": "C0DEED", "profile_background_image_url": "http://abs.twimg.com/images/themes/theme1/bg.png", "profile_background_image_url_https": "https://abs.twimg.com/images/themes/theme1/bg.png", "profile_background_tile": false, "profile_image_url": "http://pbs.twimg.com/profile_images/1384065256918450184/Y1DSiNV2_normal.jpg", "profile_image_url_https": "https://pbs.twimg.com/profile_images/1384065256918450184/Y1DSiNV2_normal.jpg", "profile_banner_url": "https://pbs.twimg.com/profile_banners/226492562/1618821849", "profile_link_color": "1DA1F2", "profile_sidebar_border_color": "C0DEED", "profile_sidebar_fill_color": "DDEEF6", "profile_text_color": "333333", "profile_use_background_image": true, "has_extended_profile": true, "default_profile": true, "default_profile_image": false, "following": false, "follow_request_sent": false, "notifications": false, "translator_type": "none", "withheld_in_countries": []}, "geo": null, "coordinates": null, "place": null, "contributors": null, "is_quote_status": false, "retweet_count": 0, "favorite_count": 0, "favorited": false, "retweeted": false, "possibly_sensitive": false, "lang": "en"}
{"created_at": "Sat Oct 09 23:25:11 +0000 2021", "id": 1446980089288302597, "id_str": "1446980089288302597", "full_text": "RT @sjames1132: The parts of Surrey and Kent currently boiling their tap water all have Conservative MPs, so we fully understand why you're\u2026", "truncated": false, "display_text_range": [0, 140], "entities": {"hashtags": [], "symbols": [], "user_mentions": [{"screen_name": "sjames1132", "name": "SJ2", "id": 546013181, "id_str": "546013181", "indices": [3, 14]}], "urls": []}, "metadata": {"iso_language_code": "en", "result_type": "recent"}, "source": "<a href=\"http://twitter.com/download/iphone\" rel=\"nofollow\">Twitter for iPhone</a>", "in_reply_to_status_id": null, "in_reply_to_status_id_str": null, "in_reply_to_user_id": null, "in_reply_to_user_id_str": null, "in_reply_to_screen_name": null, "user": {"id": 102736841, "id_str": "102736841", "name": "Welsh Bloke", "screen_name": "welsh_ad", "location": "", "description": "", "url": null, "entities": {"description": {"urls": []}}, "protected": false, "followers_count": 164, "friends_count": 483, "listed_count": 1, "created_at": "Thu Jan 07 17:21:19 +0000 2010", "favourites_count": 24176, "utc_offset": null, "time_zone": null, "geo_enabled": true, "verified": false, "statuses_count": 8264, "lang": null, "contributors_enabled": false, "is_translator": false, "is_translation_enabled": false, "profile_background_color": "C0DEED", "profile_background_image_url": "http://abs.twimg.com/images/themes/theme1/bg.png", "profile_background_image_url_https": "https://abs.twimg.com/images/themes/theme1/bg.png", "profile_background_tile": false, "profile_image_url": "http://pbs.twimg.com/profile_images/1588452760/image_normal.jpg", "profile_image_url_https": "https://pbs.twimg.com/profile_images/1588452760/image_normal.jpg", "profile_link_color": "1DA1F2", "profile_sidebar_border_color": "C0DEED", "profile_sidebar_fill_color": "DDEEF6", "profile_text_color": "333333", "profile_use_background_image": true, "has_extended_profile": false, "default_profile": true, "default_profile_image": false, "following": false, "follow_request_sent": false, "notifications": false, "translator_type": "none", "withheld_in_countries": []}, "geo": null, "coordinates": null, "place": null, "contributors": null, "retweeted_status": {"created_at": "Sat Oct 09 06:09:59 +0000 2021", "id": 1446719570530680832, "id_str": "1446719570530680832", "full_text": "The parts of Surrey and Kent currently boiling their tap water all have Conservative MPs, so we fully understand why you're not allowing yourself to report it, #r4today", "truncated": false, "display_text_range": [0, 168], "entities": {"hashtags": [{"text": "r4today", "indices": [160, 168]}], "symbols": [], "user_mentions": [], "urls": []}, "metadata": {"iso_language_code": "en", "result_type": "recent"}, "source": "<a href=\"http://twitter.com/download/android\" rel=\"nofollow\">Twitter for Android</a>", "in_reply_to_status_id": null, "in_reply_to_status_id_str": null, "in_reply_to_user_id": null, "in_reply_to_user_id_str": null, "in_reply_to_screen_name": null, "user": {"id": 546013181, "id_str": "546013181", "name": "SJ2", "screen_name": "sjames1132", "location": "London", "description": "Man of few characters", "url": null, "entities": {"description": {"urls": []}}, "protected": false, "followers_count": 828, "friends_count": 1188, "listed_count": 9, "created_at": "Thu Apr 05 14:26:35 +0000 2012", "favourites_count": 215400, "utc_offset": null, "time_zone": null, "geo_enabled": true, "verified": false, "statuses_count": 44951, "lang": null, "contributors_enabled": false, "is_translator": false, "is_translation_enabled": false, "profile_background_color": "C0DEED", "profile_background_image_url": "http://abs.twimg.com/images/themes/theme1/bg.png", "profile_background_image_url_https": "https://abs.twimg.com/images/themes/theme1/bg.png", "profile_background_tile": false, "profile_image_url": "http://pbs.twimg.com/profile_images/1164904407223427072/vo-XqiWq_normal.jpg", "profile_image_url_https": "https://pbs.twimg.com/profile_images/1164904407223427072/vo-XqiWq_normal.jpg", "profile_banner_url": "https://pbs.twimg.com/profile_banners/546013181/1538110713", "profile_link_color": "1DA1F2", "profile_sidebar_border_color": "C0DEED", "profile_sidebar_fill_color": "DDEEF6", "profile_text_color": "333333", "profile_use_background_image": true, "has_extended_profile": false, "default_profile": true, "default_profile_image": false, "following": false, "follow_request_sent": false, "notifications": false, "translator_type": "none", "withheld_in_countries": []}, "geo": null, "coordinates": null, "place": null, "contributors": null, "is_quote_status": false, "retweet_count": 1976, "favorite_count": 4715, "favorited": false, "retweeted": false, "lang": "en"}, "is_quote_status": false, "retweet_count": 1976, "favorite_count": 0, "favorited": false, "retweeted": false, "lang": "en"}
{"created_at": "Fri Oct 08 16:30:22 +0000 2021", "id": 1446513307557548033, "id_str": "1446513307557548033", "full_text": "RT @alunllwilliams: @CF24News Welsh Water have issued an alert for discoloured water in #Roath.  However, if you run the cold water tap it\u2026", "truncated": false, "display_text_range": [0, 139], "entities": {"hashtags": [{"text": "Roath", "indices": [88, 94]}], "symbols": [], "user_mentions": [{"screen_name": "alunllwilliams", "name": "Alun Williams", "id": 204953805, "id_str": "204953805", "indices": [3, 18]}, {"screen_name": "CF24News", "name": "CF24 Breaking News", "id": 769231293875879936, "id_str": "769231293875879936", "indices": [20, 29]}], "urls": []}, "metadata": {"iso_language_code": "en", "result_type": "recent"}, "source": "<a href=\"http://twitter.com/download/iphone\" rel=\"nofollow\">Twitter for iPhone</a>", "in_reply_to_status_id": null, "in_reply_to_status_id_str": null, "in_reply_to_user_id": null, "in_reply_to_user_id_str": null, "in_reply_to_screen_name": null, "user": {"id": 769231293875879936, "id_str": "769231293875879936", "name": "CF24 Breaking News", "screen_name": "CF24News", "location": "Cardiff, Wales", "description": "Breaking news and views from Cardiff's CF24 postcode. We tweet what we like and we like what we tweet. #CF24", "url": null, "entities": {"description": {"urls": []}}, "protected": false, "followers_count": 2016, "friends_count": 668, "listed_count": 27, "created_at": "Fri Aug 26 17:53:26 +0000 2016", "favourites_count": 3033, "utc_offset": null, "time_zone": null, "geo_enabled": false, "verified": false, "statuses_count": 12746, "lang": null, "contributors_enabled": false, "is_translator": false, "is_translation_enabled": false, "profile_background_color": "F5F8FA", "profile_background_image_url": null, "profile_background_image_url_https": null, "profile_background_tile": false, "profile_image_url": "http://pbs.twimg.com/profile_images/769232334084276224/SKp_k61d_normal.jpg", "profile_image_url_https": "https://pbs.twimg.com/profile_images/769232334084276224/SKp_k61d_normal.jpg", "profile_banner_url": "https://pbs.twimg.com/profile_banners/769231293875879936/1472236165", "profile_link_color": "1DA1F2", "profile_sidebar_border_color": "C0DEED", "profile_sidebar_fill_color": "DDEEF6", "profile_text_color": "333333", "profile_use_background_image": true, "has_extended_profile": false, "default_profile": true, "default_profile_image": false, "following": false, "follow_request_sent": false, "notifications": false, "translator_type": "none", "withheld_in_countries": []}, "geo": null, "coordinates": null, "place": null, "contributors": null, "retweeted_status": {"created_at": "Fri Oct 08 15:36:59 +0000 2021", "id": 1446499873088544790, "id_str": "1446499873088544790", "full_text": "@CF24News Welsh Water have issued an alert for discoloured water in #Roath.  However, if you run the cold water tap it should turn clear relatively quickly \ud83d\udeb0 https://t.co/RNBSuJi6ot", "truncated": false, "display_text_range": [0, 157], "entities": {"hashtags": [{"text": "Roath", "indices": [68, 74]}], "symbols": [], "user_mentions": [{"screen_name": "CF24News", "name": "CF24 Breaking News", "id": 769231293875879936, "id_str": "769231293875879936", "indices": [0, 9]}], "urls": [], "media": [{"id": 1446499869972127754, "id_str": "1446499869972127754", "indices": [158, 181], "media_url": "http://pbs.twimg.com/media/FBL_98VWYAohZc_.jpg", "media_url_https": "https://pbs.twimg.com/media/FBL_98VWYAohZc_.jpg", "url": "https://t.co/RNBSuJi6ot", "display_url": "pic.twitter.com/RNBSuJi6ot", "expanded_url": "https://twitter.com/alunllwilliams/status/1446499873088544790/photo/1", "type": "photo", "sizes": {"thumb": {"w": 150, "h": 150, "resize": "crop"}, "small": {"w": 306, "h": 680, "resize": "fit"}, "large": {"w": 922, "h": 2048, "resize": "fit"}, "medium": {"w": 540, "h": 1200, "resize": "fit"}}}]}, "extended_entities": {"media": [{"id": 1446499869972127754, "id_str": "1446499869972127754", "indices": [158, 181], "media_url": "http://pbs.twimg.com/media/FBL_98VWYAohZc_.jpg", "media_url_https": "https://pbs.twimg.com/media/FBL_98VWYAohZc_.jpg", "url": "https://t.co/RNBSuJi6ot", "display_url": "pic.twitter.com/RNBSuJi6ot", "expanded_url": "https://twitter.com/alunllwilliams/status/1446499873088544790/photo/1", "type": "photo", "sizes": {"thumb": {"w": 150, "h": 150, "resize": "crop"}, "small": {"w": 306, "h": 680, "resize": "fit"}, "large": {"w": 922, "h": 2048, "resize": "fit"}, "medium": {"w": 540, "h": 1200, "resize": "fit"}}}]}, "metadata": {"iso_language_code": "en", "result_type": "recent"}, "source": "<a href=\"http://twitter.com/download/android\" rel=\"nofollow\">Twitter for Android</a>", "in_reply_to_status_id": null, "in_reply_to_status_id_str": null, "in_reply_to_user_id": 769231293875879936, "in_reply_to_user_id_str": "769231293875879936", "in_reply_to_screen_name": "CF24News", "user": {"id": 204953805, "id_str": "204953805", "name": "Alun Williams", "screen_name": "alunllwilliams", "location": "Cardiff, Wales", "description": "Cymro \ud83c\udff4\udb40\udc67\udb40\udc62\udb40\udc77\udb40\udc6c\udb40\udc73\udb40\udc7f returned from exile; small business owner/MD of @arfonconsulting; proud dad; and an utterly rubbish golfer!", "url": null, "entities": {"description": {"urls": []}}, "protected": false, "followers_count": 680, "friends_count": 2394, "listed_count": 34, "created_at": "Tue Oct 19 20:57:49 +0000 2010", "favourites_count": 14397, "utc_offset": null, "time_zone": null, "geo_enabled": true, "verified": false, "statuses_count": 13353, "lang": null, "contributors_enabled": false, "is_translator": false, "is_translation_enabled": false, "profile_background_color": "C0DEED", "profile_background_image_url": "http://abs.twimg.com/images/themes/theme1/bg.png", "profile_background_image_url_https": "https://abs.twimg.com/images/themes/theme1/bg.png", "profile_background_tile": false, "profile_image_url": "http://pbs.twimg.com/profile_images/1178130359730528256/-9G9C_UQ_normal.jpg", "profile_image_url_https": "https://pbs.twimg.com/profile_images/1178130359730528256/-9G9C_UQ_normal.jpg", "profile_banner_url": "https://pbs.twimg.com/profile_banners/204953805/1376321362", "profile_link_color": "1DA1F2", "profile_sidebar_border_color": "C0DEED", "profile_sidebar_fill_color": "DDEEF6", "profile_text_color": "333333", "profile_use_background_image": true, "has_extended_profile": false, "default_profile": true, "default_profile_image": false, "following": false, "follow_request_sent": false, "notifications": false, "translator_type": "none", "withheld_in_countries": []}, "geo": null, "coordinates": null, "place": {"id": "68f3012fe4848e35", "url": "https://api.twitter.com/1.1/geo/id/68f3012fe4848e35.json", "place_type": "city", "name": "Cardiff", "full_name": "Cardiff, Wales", "country_code": "GB", "country": "United Kingdom", "contained_within": [], "bounding_box": {"type": "Polygon", "coordinates": [[[-3.278624, 51.447362], [-3.0809756, 51.447362], [-3.0809756, 51.5466412], [-3.278624, 51.5466412]]]}, "attributes": {}}, "contributors": null, "is_quote_status": false, "retweet_count": 1, "favorite_count": 0, "favorited": false, "retweeted": false, "possibly_sensitive": false, "lang": "en"}, "is_quote_status": false, "retweet_count": 1, "favorite_count": 0, "favorited": false, "retweeted": false, "lang": "en"}
{"created_at": "Fri Oct 08 15:36:59 +0000 2021", "id": 1446499873088544790, "id_str": "1446499873088544790", "full_text": "@CF24News Welsh Water have issued an alert for discoloured water in #Roath.  However, if you run the cold water tap it should turn clear relatively quickly \ud83d\udeb0 https://t.co/RNBSuJi6ot", "truncated": false, "display_text_range": [0, 157], "entities": {"hashtags": [{"text": "Roath", "indices": [68, 74]}], "symbols": [], "user_mentions": [{"screen_name": "CF24News", "name": "CF24 Breaking News", "id": 769231293875879936, "id_str": "769231293875879936", "indices": [0, 9]}], "urls": [], "media": [{"id": 1446499869972127754, "id_str": "1446499869972127754", "indices": [158, 181], "media_url": "http://pbs.twimg.com/media/FBL_98VWYAohZc_.jpg", "media_url_https": "https://pbs.twimg.com/media/FBL_98VWYAohZc_.jpg", "url": "https://t.co/RNBSuJi6ot", "display_url": "pic.twitter.com/RNBSuJi6ot", "expanded_url": "https://twitter.com/alunllwilliams/status/1446499873088544790/photo/1", "type": "photo", "sizes": {"thumb": {"w": 150, "h": 150, "resize": "crop"}, "small": {"w": 306, "h": 680, "resize": "fit"}, "large": {"w": 922, "h": 2048, "resize": "fit"}, "medium": {"w": 540, "h": 1200, "resize": "fit"}}}]}, "extended_entities": {"media": [{"id": 1446499869972127754, "id_str": "1446499869972127754", "indices": [158, 181], "media_url": "http://pbs.twimg.com/media/FBL_98VWYAohZc_.jpg", "media_url_https": "https://pbs.twimg.com/media/FBL_98VWYAohZc_.jpg", "url": "https://t.co/RNBSuJi6ot", "display_url": "pic.twitter.com/RNBSuJi6ot", "expanded_url": "https://twitter.com/alunllwilliams/status/1446499873088544790/photo/1", "type": "photo", "sizes": {"thumb": {"w": 150, "h": 150, "resize": "crop"}, "small": {"w": 306, "h": 680, "resize": "fit"}, "large": {"w": 922, "h": 2048, "resize": "fit"}, "medium": {"w": 540, "h": 1200, "resize": "fit"}}}]}, "metadata": {"iso_language_code": "en", "result_type": "recent"}, "source": "<a href=\"http://twitter.com/download/android\" rel=\"nofollow\">Twitter for Android</a>", "in_reply_to_status_id": null, "in_reply_to_status_id_str": null, "in_reply_to_user_id": 769231293875879936, "in_reply_to_user_id_str": "769231293875879936", "in_reply_to_screen_name": "CF24News", "user": {"id": 204953805, "id_str": "204953805", "name": "Alun Williams", "screen_name": "alunllwilliams", "location": "Cardiff, Wales", "description": "Cymro \ud83c\udff4\udb40\udc67\udb40\udc62\udb40\udc77\udb40\udc6c\udb40\udc73\udb40\udc7f returned from exile; small business owner/MD of @arfonconsulting; proud dad; and an utterly rubbish golfer!", "url": null, "entities": {"description": {"urls": []}}, "protected": false, "followers_count": 680, "friends_count": 2394, "listed_count": 34, "created_at": "Tue Oct 19 20:57:49 +0000 2010", "favourites_count": 14397, "utc_offset": null, "time_zone": null, "geo_enabled": true, "verified": false, "statuses_count": 13353, "lang": null, "contributors_enabled": false, "is_translator": false, "is_translation_enabled": false, "profile_background_color": "C0DEED", "profile_background_image_url": "http://abs.twimg.com/images/themes/theme1/bg.png", "profile_background_image_url_https": "https://abs.twimg.com/images/themes/theme1/bg.png", "profile_background_tile": false, "profile_image_url": "http://pbs.twimg.com/profile_images/1178130359730528256/-9G9C_UQ_normal.jpg", "profile_image_url_https": "https://pbs.twimg.com/profile_images/1178130359730528256/-9G9C_UQ_normal.jpg", "profile_banner_url": "https://pbs.twimg.com/profile_banners/204953805/1376321362", "profile_link_color": "1DA1F2", "profile_sidebar_border_color": "C0DEED", "profile_sidebar_fill_color": "DDEEF6", "profile_text_color": "333333", "profile_use_background_image": true, "has_extended_profile": false, "default_profile": true, "default_profile_image": false, "following": false, "follow_request_sent": false, "notifications": false, "translator_type": "none", "withheld_in_countries": []}, "geo": null, "coordinates": null, "place": {"id": "68f3012fe4848e35", "url": "https://api.twitter.com/1.1/geo/id/68f3012fe4848e35.json", "place_type": "city", "name": "Cardiff", "full_name": "Cardiff, Wales", "country_code": "GB", "country": "United Kingdom", "contained_within": [], "bounding_box": {"type": "Polygon", "coordinates": [[[-3.278624, 51.447362], [-3.0809756, 51.447362], [-3.0809756, 51.5466412], [-3.278624, 51.5466412]]]}, "attributes": {}}, "contributors": null, "is_quote_status": false, "retweet_count": 1, "favorite_count": 0, "favorited": false, "retweeted": false, "possibly_sensitive": false, "lang": "en"}
{"created_at": "Fri Oct 08 10:17:44 +0000 2021", "id": 1446419533825200131, "id_str": "1446419533825200131", "full_text": "Possibly still drunk but all I want is that sweet welsh tap water \ud83d\udc4c\ud83d\udc4c\ud83d\udc4c", "truncated": false, "display_text_range": [0, 69], "entities": {"hashtags": [], "symbols": [], "user_mentions": [], "urls": []}, "metadata": {"iso_language_code": "en", "result_type": "recent"}, "source": "<a href=\"http://twitter.com/download/iphone\" rel=\"nofollow\">Twitter for iPhone</a>", "in_reply_to_status_id": null, "in_reply_to_status_id_str": null, "in_reply_to_user_id": null, "in_reply_to_user_id_str": null, "in_reply_to_screen_name": null, "user": {"id": 2480997658, "id_str": "2480997658", "name": "iz\ud83c\udf52", "screen_name": "iz_obel", "location": "Wales, United Kingdom", "description": "21 - \ud83c\udff4\udb40\udc67\udb40\udc62\udb40\udc77\udb40\udc6c\udb40\udc73\udb40\udc7f - she/her", "url": "https://t.co/XKHA9ZB3DG", "entities": {"url": {"urls": [{"url": "https://t.co/XKHA9ZB3DG", "expanded_url": "https://izmansfield.wixsite.com/izfashion", "display_url": "izmansfield.wixsite.com/izfashion", "indices": [0, 23]}]}, "description": {"urls": []}}, "protected": false, "followers_count": 722, "friends_count": 650, "listed_count": 3, "created_at": "Sun Apr 13 08:32:35 +0000 2014", "favourites_count": 43497, "utc_offset": null, "time_zone": null, "geo_enabled": false, "verified": false, "statuses_count": 14539, "lang": null, "contributors_enabled": false, "is_translator": false, "is_translation_enabled": false, "profile_background_color": "C0DEED", "profile_background_image_url": "http://abs.twimg.com/images/themes/theme1/bg.png", "profile_background_image_url_https": "https://abs.twimg.com/images/themes/theme1/bg.png", "profile_background_tile": false, "profile_image_url": "http://pbs.twimg.com/profile_images/1391498940424626179/6zbjD7sD_normal.jpg", "profile_image_url_https": "https://pbs.twimg.com/profile_images/1391498940424626179/6zbjD7sD_normal.jpg", "profile_banner_url": "https://pbs.twimg.com/profile_banners/2480997658/1587644817", "profile_link_color": "1DA1F2", "profile_sidebar_border_color": "C0DEED", "profile_sidebar_fill_color": "DDEEF6", "profile_text_color": "333333", "profile_use_background_image": true, "has_extended_profile": true, "default_profile": true, "default_profile_image": false, "following": false, "follow_request_sent": false, "notifications": false, "translator_type": "none", "withheld_in_countries": []}, "geo": null, "coordinates": null, "place": null, "contributors": null, "is_quote_status": false, "retweet_count": 0, "favorite_count": 14, "favorited": false, "retweeted": false, "lang": "en"}
