{"created_at": "Sun Oct 03 22:04:24 +0000 2021", "id": 1444785432097554433, "id_str": "1444785432097554433", "full_text": "@mitch_troy I mean this in the least virtue signal-y way possible but you must realize that John Doe in south east Asia or Africa, who doesn't have clean water or consistent meals doesn't care about purchasing US dollars or investing... it changes nothing for their needs...", "truncated": false, "display_text_range": [12, 274], "entities": {"hashtags": [], "symbols": [], "user_mentions": [{"screen_name": "mitch_troy", "name": "mitchell.sol", "id": 835754434529406978, "id_str": "835754434529406978", "indices": [0, 11]}], "urls": []}, "metadata": {"iso_language_code": "en", "result_type": "recent"}, "source": "<a href=\"https://mobile.twitter.com\" rel=\"nofollow\">Twitter Web App</a>", "in_reply_to_status_id": 1444784408100106240, "in_reply_to_status_id_str": "1444784408100106240", "in_reply_to_user_id": 835754434529406978, "in_reply_to_user_id_str": "835754434529406978", "in_reply_to_screen_name": "mitch_troy", "user": {"id": 1177670980447002624, "id_str": "1177670980447002624", "name": "\u039ethan Ding", "screen_name": "TheEthanDing", "location": "San Francisco Bay Area", "description": "my fun fact is that I'm 5' 11\" and 3/4, product @tackleio @Edith_Labs @contrarycapital https://t.co/AdeuVGqKd3 prev @MenloVentures, @BessemerVP ODC1", "url": "https://t.co/SZl4D8XWW6", "entities": {"url": {"urls": [{"url": "https://t.co/SZl4D8XWW6", "expanded_url": "http://ethanding.com/", "display_url": "ethanding.com", "indices": [0, 23]}]}, "description": {"urls": [{"url": "https://t.co/AdeuVGqKd3", "expanded_url": "http://shl.vc", "display_url": "shl.vc", "indices": [87, 110]}]}}, "protected": false, "followers_count": 1095, "friends_count": 531, "listed_count": 16, "created_at": "Fri Sep 27 19:47:01 +0000 2019", "favourites_count": 442, "utc_offset": null, "time_zone": null, "geo_enabled": false, "verified": false, "statuses_count": 810, "lang": null, "contributors_enabled": false, "is_translator": false, "is_translation_enabled": false, "profile_background_color": "F5F8FA", "profile_background_image_url": null, "profile_background_image_url_https": null, "profile_background_tile": false, "profile_image_url": "http://pbs.twimg.com/profile_images/1415417147942084609/gIDCWC0m_normal.jpg", "profile_image_url_https": "https://pbs.twimg.com/profile_images/1415417147942084609/gIDCWC0m_normal.jpg", "profile_banner_url": "https://pbs.twimg.com/profile_banners/1177670980447002624/1626296781", "profile_link_color": "1DA1F2", "profile_sidebar_border_color": "C0DEED", "profile_sidebar_fill_color": "DDEEF6", "profile_text_color": "333333", "profile_use_background_image": true, "has_extended_profile": true, "default_profile": true, "default_profile_image": false, "following": false, "follow_request_sent": false, "notifications": false, "translator_type": "none", "withheld_in_countries": []}, "geo": null, "coordinates": null, "place": null, "contributors": null, "is_quote_status": false, "retweet_count": 0, "favorite_count": 0, "favorited": false, "retweeted": false, "lang": "en"}
{"created_at": "Sat Oct 02 14:13:36 +0000 2021", "id": 1444304561682849796, "id_str": "1444304561682849796", "full_text": "Hol up, I'm just learning that nowhere else on earth besides South East Asia that uses water to clean their arse. (I found this image in a discord server, whoever did this you're a legend lol) https://t.co/1nRwWYCrYG", "truncated": false, "display_text_range": [0, 192], "entities": {"hashtags": [], "symbols": [], "user_mentions": [], "urls": [], "media": [{"id": 1444304558017052679, "id_str": "1444304558017052679", "indices": [193, 216], "media_url": "http://pbs.twimg.com/media/FAszV-AVgAc8aCg.jpg", "media_url_https": "https://pbs.twimg.com/media/FAszV-AVgAc8aCg.jpg", "url": "https://t.co/1nRwWYCrYG", "display_url": "pic.twitter.com/1nRwWYCrYG", "expanded_url": "https://twitter.com/ArcticRed_Panda/status/1444304561682849796/photo/1", "type": "photo", "sizes": {"medium": {"w": 720, "h": 617, "resize": "fit"}, "thumb": {"w": 150, "h": 150, "resize": "crop"}, "large": {"w": 720, "h": 617, "resize": "fit"}, "small": {"w": 680, "h": 583, "resize": "fit"}}}]}, "extended_entities": {"media": [{"id": 1444304558017052679, "id_str": "1444304558017052679", "indices": [193, 216], "media_url": "http://pbs.twimg.com/media/FAszV-AVgAc8aCg.jpg", "media_url_https": "https://pbs.twimg.com/media/FAszV-AVgAc8aCg.jpg", "url": "https://t.co/1nRwWYCrYG", "display_url": "pic.twitter.com/1nRwWYCrYG", "expanded_url": "https://twitter.com/ArcticRed_Panda/status/1444304561682849796/photo/1", "type": "photo", "sizes": {"medium": {"w": 720, "h": 617, "resize": "fit"}, "thumb": {"w": 150, "h": 150, "resize": "crop"}, "large": {"w": 720, "h": 617, "resize": "fit"}, "small": {"w": 680, "h": 583, "resize": "fit"}}}]}, "metadata": {"iso_language_code": "en", "result_type": "recent"}, "source": "<a href=\"http://twitter.com/download/android\" rel=\"nofollow\">Twitter for Android</a>", "in_reply_to_status_id": null, "in_reply_to_status_id_str": null, "in_reply_to_user_id": null, "in_reply_to_user_id_str": null, "in_reply_to_screen_name": null, "user": {"id": 781145246138707968, "id_str": "781145246138707968", "name": "\ud83c\udf38\u2744AWACS\u30d6\u30e9\u30c3\u30af\u30b7\u30e3\u30fc\u30af\u2744\ud83c\udf38", "screen_name": "ArcticRed_Panda", "location": "Selangor, Malaysia", "description": "Aeugh", "url": null, "entities": {"description": {"urls": []}}, "protected": false, "followers_count": 243, "friends_count": 597, "listed_count": 3, "created_at": "Wed Sep 28 14:55:14 +0000 2016", "favourites_count": 917, "utc_offset": null, "time_zone": null, "geo_enabled": true, "verified": false, "statuses_count": 1623, "lang": null, "contributors_enabled": false, "is_translator": false, "is_translation_enabled": false, "profile_background_color": "F5F8FA", "profile_background_image_url": null, "profile_background_image_url_https": null, "profile_background_tile": false, "profile_image_url": "http://pbs.twimg.com/profile_images/1433422753994981382/Nvc6xFE5_normal.jpg", "profile_image_url_https": "https://pbs.twimg.com/profile_images/1433422753994981382/Nvc6xFE5_normal.jpg", "profile_banner_url": "https://pbs.twimg.com/profile_banners/781145246138707968/1604814587", "profile_link_color": "1DA1F2", "profile_sidebar_border_color": "C0DEED", "profile_sidebar_fill_color": "DDEEF6", "profile_text_color": "333333", "profile_use_background_image": true, "has_extended_profile": true, "default_profile": true, "default_profile_image": false, "following": false, "follow_request_sent": false, "notifications": false, "translator_type": "none", "withheld_in_countries": []}, "geo": null, "coordinates": null, "place": null, "contributors": null, "is_quote_status": false, "retweet_count": 0, "favorite_count": 0, "favorited": false, "retweeted": false, "possibly_sensitive": false, "lang": "en"}
{"created_at": "Thu Sep 30 17:31:18 +0000 2021", "id": 1443629539071037445, "id_str": "1443629539071037445", "full_text": "USA pushing for clean water(!). Shitty Southern Water and South East Water and G7 Kent County Barn too? Flint jail? Time4Change @SenDuckworth @ErinBrockovich @Feargal_Sharkey @GreenJennyJones @CarolineLucas @AccAylingKP @GermanAmbUK", "truncated": false, "display_text_range": [0, 232], "entities": {"hashtags": [], "symbols": [], "user_mentions": [{"screen_name": "SenDuckworth", "name": "Tammy Duckworth", "id": 1058520120, "id_str": "1058520120", "indices": [128, 141]}, {"screen_name": "ErinBrockovich", "name": "Erin Brockovich", "id": 85694915, "id_str": "85694915", "indices": [142, 157]}, {"screen_name": "Feargal_Sharkey", "name": "Feargal Sharkey", "id": 4001262681, "id_str": "4001262681", "indices": [158, 174]}, {"screen_name": "GreenJennyJones", "name": "Jenny Jones", "id": 20589511, "id_str": "20589511", "indices": [175, 191]}, {"screen_name": "CarolineLucas", "name": "Caroline Lucas", "id": 80802900, "id_str": "80802900", "indices": [192, 206]}, {"screen_name": "AccAylingKP", "name": "ACC Peter Ayling - Kent Police", "id": 1197873787229888513, "id_str": "1197873787229888513", "indices": [207, 219]}, {"screen_name": "GermanAmbUK", "name": "Andreas Michaelis", "id": 4783875515, "id_str": "4783875515", "indices": [220, 232]}], "urls": []}, "metadata": {"iso_language_code": "en", "result_type": "recent"}, "source": "<a href=\"https://mobile.twitter.com\" rel=\"nofollow\">Twitter Web App</a>", "in_reply_to_status_id": null, "in_reply_to_status_id_str": null, "in_reply_to_user_id": null, "in_reply_to_user_id_str": null, "in_reply_to_screen_name": null, "user": {"id": 490636475, "id_str": "490636475", "name": "Tim Garbutt", "screen_name": "timg33", "location": "Ramsgate, Kent, UK", "description": "Sincerity Advertising, MP and Mayor candidate, Surin Schools charity and Surin Thai restaurant. Email: timgarbutt@yahoo.com", "url": "https://t.co/kUMIEczRGe", "entities": {"url": {"urls": [{"url": "https://t.co/kUMIEczRGe", "expanded_url": "http://lovekentloveramsgate.blogspot.com", "display_url": "lovekentloveramsgate.blogspot.com", "indices": [0, 23]}]}, "description": {"urls": []}}, "protected": false, "followers_count": 1818, "friends_count": 4998, "listed_count": 363, "created_at": "Sun Feb 12 19:14:29 +0000 2012", "favourites_count": 70335, "utc_offset": null, "time_zone": null, "geo_enabled": true, "verified": false, "statuses_count": 281997, "lang": null, "contributors_enabled": false, "is_translator": false, "is_translation_enabled": false, "profile_background_color": "8B542B", "profile_background_image_url": "http://abs.twimg.com/images/themes/theme8/bg.gif", "profile_background_image_url_https": "https://abs.twimg.com/images/themes/theme8/bg.gif", "profile_background_tile": false, "profile_image_url": "http://pbs.twimg.com/profile_images/2871330713/ba25dc9dbfa13a52f9793ec5b264f777_normal.jpeg", "profile_image_url_https": "https://pbs.twimg.com/profile_images/2871330713/ba25dc9dbfa13a52f9793ec5b264f777_normal.jpeg", "profile_banner_url": "https://pbs.twimg.com/profile_banners/490636475/1398209592", "profile_link_color": "9D582E", "profile_sidebar_border_color": "D9B17E", "profile_sidebar_fill_color": "EADEAA", "profile_text_color": "333333", "profile_use_background_image": true, "has_extended_profile": false, "default_profile": false, "default_profile_image": false, "following": false, "follow_request_sent": false, "notifications": false, "translator_type": "none", "withheld_in_countries": []}, "geo": null, "coordinates": null, "place": null, "contributors": null, "is_quote_status": false, "retweet_count": 0, "favorite_count": 0, "favorited": false, "retweeted": false, "lang": "en"}
