{"created_at": "Mon Oct 04 20:50:40 +0000 2021", "id": 1445129264353976326, "id_str": "1445129264353976326", "full_text": "RT @Minderbinder8: @JohnSmi34942630 @kentaylor56 @paulmasonnews My Yorkshire BiL tells me his local pig farmer clients are going to be cull\u2026", "truncated": false, "display_text_range": [0, 140], "entities": {"hashtags": [], "symbols": [], "user_mentions": [{"screen_name": "Minderbinder8", "name": "Minderbinder", "id": 833232062618431489, "id_str": "833232062618431489", "indices": [3, 17]}, {"screen_name": "JohnSmi34942630", "name": "John Smith", "id": 1432653033276592128, "id_str": "1432653033276592128", "indices": [19, 35]}, {"screen_name": "kentaylor56", "name": "Ken Taylor \ud83c\udff4\udb40\udc67\udb40\udc62\udb40\udc73\udb40\udc63\udb40\udc74\udb40\udc7f\ud83c\uddea\ud83c\uddf8\ud83c\uddea\ud83c\uddfa #FBPE", "id": 148358189, "id_str": "148358189", "indices": [36, 48]}, {"screen_name": "paulmasonnews", "name": "Paul Mason", "id": 19811190, "id_str": "19811190", "indices": [49, 63]}], "urls": []}, "metadata": {"iso_language_code": "en", "result_type": "recent"}, "source": "<a href=\"http://twitter.com/download/android\" rel=\"nofollow\">Twitter for Android</a>", "in_reply_to_status_id": null, "in_reply_to_status_id_str": null, "in_reply_to_user_id": null, "in_reply_to_user_id_str": null, "in_reply_to_screen_name": null, "user": {"id": 1563827293, "id_str": "1563827293", "name": "Caroline Stedman \ud83c\uddea\ud83c\uddfa\ud83c\udff3\ufe0f\u200d\ud83c\udf08\ud83d\udc99", "screen_name": "Alisarnie", "location": "", "description": "feminist, hiker, dancer, foodie, eccentric!", "url": null, "entities": {"description": {"urls": []}}, "protected": false, "followers_count": 777, "friends_count": 960, "listed_count": 5, "created_at": "Tue Jul 02 18:22:08 +0000 2013", "favourites_count": 31753, "utc_offset": null, "time_zone": null, "geo_enabled": false, "verified": false, "statuses_count": 48343, "lang": null, "contributors_enabled": false, "is_translator": false, "is_translation_enabled": false, "profile_background_color": "000000", "profile_background_image_url": "http://abs.twimg.com/images/themes/theme1/bg.png", "profile_background_image_url_https": "https://abs.twimg.com/images/themes/theme1/bg.png", "profile_background_tile": false, "profile_image_url": "http://pbs.twimg.com/profile_images/696385821411307522/Yid9J7t-_normal.jpg", "profile_image_url_https": "https://pbs.twimg.com/profile_images/696385821411307522/Yid9J7t-_normal.jpg", "profile_link_color": "1B95E0", "profile_sidebar_border_color": "000000", "profile_sidebar_fill_color": "000000", "profile_text_color": "000000", "profile_use_background_image": false, "has_extended_profile": false, "default_profile": false, "default_profile_image": false, "following": false, "follow_request_sent": false, "notifications": false, "translator_type": "none", "withheld_in_countries": []}, "geo": null, "coordinates": null, "place": null, "contributors": null, "retweeted_status": {"created_at": "Mon Oct 04 18:45:08 +0000 2021", "id": 1445097671509827585, "id_str": "1445097671509827585", "full_text": "@JohnSmi34942630 @kentaylor56 @paulmasonnews My Yorkshire BiL tells me his local pig farmer clients are going to be culling their pigs soon (as was in the news over the w/e). How are you doing for blood test tubes? This image shows where sewage is being released due to water treatment shortages https://t.co/xitXU2S0hf", "truncated": false, "display_text_range": [45, 295], "entities": {"hashtags": [], "symbols": [], "user_mentions": [{"screen_name": "JohnSmi34942630", "name": "John Smith", "id": 1432653033276592128, "id_str": "1432653033276592128", "indices": [0, 16]}, {"screen_name": "kentaylor56", "name": "Ken Taylor \ud83c\udff4\udb40\udc67\udb40\udc62\udb40\udc73\udb40\udc63\udb40\udc74\udb40\udc7f\ud83c\uddea\ud83c\uddf8\ud83c\uddea\ud83c\uddfa #FBPE", "id": 148358189, "id_str": "148358189", "indices": [17, 29]}, {"screen_name": "paulmasonnews", "name": "Paul Mason", "id": 19811190, "id_str": "19811190", "indices": [30, 44]}], "urls": [], "media": [{"id": 1445097666648678402, "id_str": "1445097666648678402", "indices": [296, 319], "media_url": "http://pbs.twimg.com/media/FA4Eq95XIAI8EAI.jpg", "media_url_https": "https://pbs.twimg.com/media/FA4Eq95XIAI8EAI.jpg", "url": "https://t.co/xitXU2S0hf", "display_url": "pic.twitter.com/xitXU2S0hf", "expanded_url": "https://twitter.com/Minderbinder8/status/1445097671509827585/photo/1", "type": "photo", "sizes": {"thumb": {"w": 150, "h": 150, "resize": "crop"}, "large": {"w": 567, "h": 742, "resize": "fit"}, "small": {"w": 520, "h": 680, "resize": "fit"}, "medium": {"w": 567, "h": 742, "resize": "fit"}}}]}, "extended_entities": {"media": [{"id": 1445097666648678402, "id_str": "1445097666648678402", "indices": [296, 319], "media_url": "http://pbs.twimg.com/media/FA4Eq95XIAI8EAI.jpg", "media_url_https": "https://pbs.twimg.com/media/FA4Eq95XIAI8EAI.jpg", "url": "https://t.co/xitXU2S0hf", "display_url": "pic.twitter.com/xitXU2S0hf", "expanded_url": "https://twitter.com/Minderbinder8/status/1445097671509827585/photo/1", "type": "photo", "sizes": {"thumb": {"w": 150, "h": 150, "resize": "crop"}, "large": {"w": 567, "h": 742, "resize": "fit"}, "small": {"w": 520, "h": 680, "resize": "fit"}, "medium": {"w": 567, "h": 742, "resize": "fit"}}}]}, "metadata": {"iso_language_code": "en", "result_type": "recent"}, "source": "<a href=\"http://twitter.com/download/iphone\" rel=\"nofollow\">Twitter for iPhone</a>", "in_reply_to_status_id": 1445097149084090370, "in_reply_to_status_id_str": "1445097149084090370", "in_reply_to_user_id": 833232062618431489, "in_reply_to_user_id_str": "833232062618431489", "in_reply_to_screen_name": "Minderbinder8", "user": {"id": 833232062618431489, "id_str": "833232062618431489", "name": "Minderbinder", "screen_name": "Minderbinder8", "location": "", "description": "Dad. Game Designer. Creative Director. Tweet about stuff that bores friends and family. Opinions my own", "url": null, "entities": {"description": {"urls": []}}, "protected": false, "followers_count": 126, "friends_count": 845, "listed_count": 1, "created_at": "Sun Feb 19 08:29:39 +0000 2017", "favourites_count": 7691, "utc_offset": null, "time_zone": null, "geo_enabled": false, "verified": false, "statuses_count": 16001, "lang": null, "contributors_enabled": false, "is_translator": false, "is_translation_enabled": false, "profile_background_color": "F5F8FA", "profile_background_image_url": null, "profile_background_image_url_https": null, "profile_background_tile": false, "profile_image_url": "http://pbs.twimg.com/profile_images/1220104875767406593/8COxosE0_normal.jpg", "profile_image_url_https": "https://pbs.twimg.com/profile_images/1220104875767406593/8COxosE0_normal.jpg", "profile_banner_url": "https://pbs.twimg.com/profile_banners/833232062618431489/1587072407", "profile_link_color": "1DA1F2", "profile_sidebar_border_color": "C0DEED", "profile_sidebar_fill_color": "DDEEF6", "profile_text_color": "333333", "profile_use_background_image": true, "has_extended_profile": false, "default_profile": true, "default_profile_image": false, "following": false, "follow_request_sent": false, "notifications": false, "translator_type": "none", "withheld_in_countries": []}, "geo": null, "coordinates": null, "place": null, "contributors": null, "is_quote_status": false, "retweet_count": 3, "favorite_count": 2, "favorited": false, "retweeted": false, "possibly_sensitive": false, "lang": "en"}, "is_quote_status": false, "retweet_count": 3, "favorite_count": 0, "favorited": false, "retweeted": false, "lang": "en"}
{"created_at": "Mon Oct 04 20:32:59 +0000 2021", "id": 1445124815434752005, "id_str": "1445124815434752005", "full_text": "RT @Minderbinder8: @JohnSmi34942630 @kentaylor56 @paulmasonnews My Yorkshire BiL tells me his local pig farmer clients are going to be cull\u2026", "truncated": false, "display_text_range": [0, 140], "entities": {"hashtags": [], "symbols": [], "user_mentions": [{"screen_name": "Minderbinder8", "name": "Minderbinder", "id": 833232062618431489, "id_str": "833232062618431489", "indices": [3, 17]}, {"screen_name": "JohnSmi34942630", "name": "John Smith", "id": 1432653033276592128, "id_str": "1432653033276592128", "indices": [19, 35]}, {"screen_name": "kentaylor56", "name": "Ken Taylor \ud83c\udff4\udb40\udc67\udb40\udc62\udb40\udc73\udb40\udc63\udb40\udc74\udb40\udc7f\ud83c\uddea\ud83c\uddf8\ud83c\uddea\ud83c\uddfa #FBPE", "id": 148358189, "id_str": "148358189", "indices": [36, 48]}, {"screen_name": "paulmasonnews", "name": "Paul Mason", "id": 19811190, "id_str": "19811190", "indices": [49, 63]}], "urls": []}, "metadata": {"iso_language_code": "en", "result_type": "recent"}, "source": "<a href=\"http://twitter.com/download/iphone\" rel=\"nofollow\">Twitter for iPhone</a>", "in_reply_to_status_id": null, "in_reply_to_status_id_str": null, "in_reply_to_user_id": null, "in_reply_to_user_id_str": null, "in_reply_to_screen_name": null, "user": {"id": 3586091476, "id_str": "3586091476", "name": "GMP \ud83d\udc8a\ud83c\udf11\ud83d\ude47\u200d\u2640\ufe0f\ud83e\udd26\u200d\u2640\ufe0f\ud83d\udd77\ud83c\uddea\ud83c\uddfa\ud83d\ude42\ud83e\udd2c\ud83d\udc99", "screen_name": "PictorMary", "location": "", "description": "FBPE Retired Teacher Great Aunt Remainer at heart Sewing addict Sometimes tweet b4 thinking RT doesn\u2019t necessarily mean approval #FBPA #FBPPR", "url": null, "entities": {"description": {"urls": []}}, "protected": false, "followers_count": 1647, "friends_count": 2062, "listed_count": 2, "created_at": "Tue Sep 08 09:03:04 +0000 2015", "favourites_count": 63792, "utc_offset": null, "time_zone": null, "geo_enabled": false, "verified": false, "statuses_count": 96120, "lang": null, "contributors_enabled": false, "is_translator": false, "is_translation_enabled": false, "profile_background_color": "C0DEED", "profile_background_image_url": "http://abs.twimg.com/images/themes/theme1/bg.png", "profile_background_image_url_https": "https://abs.twimg.com/images/themes/theme1/bg.png", "profile_background_tile": false, "profile_image_url": "http://pbs.twimg.com/profile_images/646394364961423360/D1cw14t-_normal.jpg", "profile_image_url_https": "https://pbs.twimg.com/profile_images/646394364961423360/D1cw14t-_normal.jpg", "profile_link_color": "1DA1F2", "profile_sidebar_border_color": "C0DEED", "profile_sidebar_fill_color": "DDEEF6", "profile_text_color": "333333", "profile_use_background_image": true, "has_extended_profile": false, "default_profile": true, "default_profile_image": false, "following": false, "follow_request_sent": false, "notifications": false, "translator_type": "none", "withheld_in_countries": []}, "geo": null, "coordinates": null, "place": null, "contributors": null, "retweeted_status": {"created_at": "Mon Oct 04 18:45:08 +0000 2021", "id": 1445097671509827585, "id_str": "1445097671509827585", "full_text": "@JohnSmi34942630 @kentaylor56 @paulmasonnews My Yorkshire BiL tells me his local pig farmer clients are going to be culling their pigs soon (as was in the news over the w/e). How are you doing for blood test tubes? This image shows where sewage is being released due to water treatment shortages https://t.co/xitXU2S0hf", "truncated": false, "display_text_range": [45, 295], "entities": {"hashtags": [], "symbols": [], "user_mentions": [{"screen_name": "JohnSmi34942630", "name": "John Smith", "id": 1432653033276592128, "id_str": "1432653033276592128", "indices": [0, 16]}, {"screen_name": "kentaylor56", "name": "Ken Taylor \ud83c\udff4\udb40\udc67\udb40\udc62\udb40\udc73\udb40\udc63\udb40\udc74\udb40\udc7f\ud83c\uddea\ud83c\uddf8\ud83c\uddea\ud83c\uddfa #FBPE", "id": 148358189, "id_str": "148358189", "indices": [17, 29]}, {"screen_name": "paulmasonnews", "name": "Paul Mason", "id": 19811190, "id_str": "19811190", "indices": [30, 44]}], "urls": [], "media": [{"id": 1445097666648678402, "id_str": "1445097666648678402", "indices": [296, 319], "media_url": "http://pbs.twimg.com/media/FA4Eq95XIAI8EAI.jpg", "media_url_https": "https://pbs.twimg.com/media/FA4Eq95XIAI8EAI.jpg", "url": "https://t.co/xitXU2S0hf", "display_url": "pic.twitter.com/xitXU2S0hf", "expanded_url": "https://twitter.com/Minderbinder8/status/1445097671509827585/photo/1", "type": "photo", "sizes": {"thumb": {"w": 150, "h": 150, "resize": "crop"}, "large": {"w": 567, "h": 742, "resize": "fit"}, "small": {"w": 520, "h": 680, "resize": "fit"}, "medium": {"w": 567, "h": 742, "resize": "fit"}}}]}, "extended_entities": {"media": [{"id": 1445097666648678402, "id_str": "1445097666648678402", "indices": [296, 319], "media_url": "http://pbs.twimg.com/media/FA4Eq95XIAI8EAI.jpg", "media_url_https": "https://pbs.twimg.com/media/FA4Eq95XIAI8EAI.jpg", "url": "https://t.co/xitXU2S0hf", "display_url": "pic.twitter.com/xitXU2S0hf", "expanded_url": "https://twitter.com/Minderbinder8/status/1445097671509827585/photo/1", "type": "photo", "sizes": {"thumb": {"w": 150, "h": 150, "resize": "crop"}, "large": {"w": 567, "h": 742, "resize": "fit"}, "small": {"w": 520, "h": 680, "resize": "fit"}, "medium": {"w": 567, "h": 742, "resize": "fit"}}}]}, "metadata": {"iso_language_code": "en", "result_type": "recent"}, "source": "<a href=\"http://twitter.com/download/iphone\" rel=\"nofollow\">Twitter for iPhone</a>", "in_reply_to_status_id": 1445097149084090370, "in_reply_to_status_id_str": "1445097149084090370", "in_reply_to_user_id": 833232062618431489, "in_reply_to_user_id_str": "833232062618431489", "in_reply_to_screen_name": "Minderbinder8", "user": {"id": 833232062618431489, "id_str": "833232062618431489", "name": "Minderbinder", "screen_name": "Minderbinder8", "location": "", "description": "Dad. Game Designer. Creative Director. Tweet about stuff that bores friends and family. Opinions my own", "url": null, "entities": {"description": {"urls": []}}, "protected": false, "followers_count": 126, "friends_count": 845, "listed_count": 1, "created_at": "Sun Feb 19 08:29:39 +0000 2017", "favourites_count": 7691, "utc_offset": null, "time_zone": null, "geo_enabled": false, "verified": false, "statuses_count": 16001, "lang": null, "contributors_enabled": false, "is_translator": false, "is_translation_enabled": false, "profile_background_color": "F5F8FA", "profile_background_image_url": null, "profile_background_image_url_https": null, "profile_background_tile": false, "profile_image_url": "http://pbs.twimg.com/profile_images/1220104875767406593/8COxosE0_normal.jpg", "profile_image_url_https": "https://pbs.twimg.com/profile_images/1220104875767406593/8COxosE0_normal.jpg", "profile_banner_url": "https://pbs.twimg.com/profile_banners/833232062618431489/1587072407", "profile_link_color": "1DA1F2", "profile_sidebar_border_color": "C0DEED", "profile_sidebar_fill_color": "DDEEF6", "profile_text_color": "333333", "profile_use_background_image": true, "has_extended_profile": false, "default_profile": true, "default_profile_image": false, "following": false, "follow_request_sent": false, "notifications": false, "translator_type": "none", "withheld_in_countries": []}, "geo": null, "coordinates": null, "place": null, "contributors": null, "is_quote_status": false, "retweet_count": 3, "favorite_count": 2, "favorited": false, "retweeted": false, "possibly_sensitive": false, "lang": "en"}, "is_quote_status": false, "retweet_count": 3, "favorite_count": 0, "favorited": false, "retweeted": false, "lang": "en"}
{"created_at": "Mon Oct 04 20:21:51 +0000 2021", "id": 1445122013320855560, "id_str": "1445122013320855560", "full_text": "RT @Minderbinder8: @JohnSmi34942630 @kentaylor56 @paulmasonnews My Yorkshire BiL tells me his local pig farmer clients are going to be cull\u2026", "truncated": false, "display_text_range": [0, 140], "entities": {"hashtags": [], "symbols": [], "user_mentions": [{"screen_name": "Minderbinder8", "name": "Minderbinder", "id": 833232062618431489, "id_str": "833232062618431489", "indices": [3, 17]}, {"screen_name": "JohnSmi34942630", "name": "John Smith", "id": 1432653033276592128, "id_str": "1432653033276592128", "indices": [19, 35]}, {"screen_name": "kentaylor56", "name": "Ken Taylor \ud83c\udff4\udb40\udc67\udb40\udc62\udb40\udc73\udb40\udc63\udb40\udc74\udb40\udc7f\ud83c\uddea\ud83c\uddf8\ud83c\uddea\ud83c\uddfa #FBPE", "id": 148358189, "id_str": "148358189", "indices": [36, 48]}, {"screen_name": "paulmasonnews", "name": "Paul Mason", "id": 19811190, "id_str": "19811190", "indices": [49, 63]}], "urls": []}, "metadata": {"iso_language_code": "en", "result_type": "recent"}, "source": "<a href=\"http://twitter.com/download/iphone\" rel=\"nofollow\">Twitter for iPhone</a>", "in_reply_to_status_id": null, "in_reply_to_status_id_str": null, "in_reply_to_user_id": null, "in_reply_to_user_id_str": null, "in_reply_to_screen_name": null, "user": {"id": 148358189, "id_str": "148358189", "name": "Ken Taylor \ud83c\udff4\udb40\udc67\udb40\udc62\udb40\udc73\udb40\udc63\udb40\udc74\udb40\udc7f\ud83c\uddea\ud83c\uddf8\ud83c\uddea\ud83c\uddfa #FBPE", "screen_name": "kentaylor56", "location": "Spain, Scotland, England", "description": "Scot, living in England and Spain, once a prop, now a golfer, Glasgow Warriors. #Toryscum #Brexitcarnage #FBPE #FuckoffJohnson", "url": null, "entities": {"description": {"urls": []}}, "protected": false, "followers_count": 1304, "friends_count": 2476, "listed_count": 3, "created_at": "Wed May 26 14:06:26 +0000 2010", "favourites_count": 16994, "utc_offset": null, "time_zone": null, "geo_enabled": true, "verified": false, "statuses_count": 20401, "lang": null, "contributors_enabled": false, "is_translator": false, "is_translation_enabled": false, "profile_background_color": "C0DEED", "profile_background_image_url": "http://abs.twimg.com/images/themes/theme1/bg.png", "profile_background_image_url_https": "https://abs.twimg.com/images/themes/theme1/bg.png", "profile_background_tile": false, "profile_image_url": "http://pbs.twimg.com/profile_images/1206679826771263488/5NbtnirE_normal.png", "profile_image_url_https": "https://pbs.twimg.com/profile_images/1206679826771263488/5NbtnirE_normal.png", "profile_banner_url": "https://pbs.twimg.com/profile_banners/148358189/1599256768", "profile_link_color": "1DA1F2", "profile_sidebar_border_color": "C0DEED", "profile_sidebar_fill_color": "DDEEF6", "profile_text_color": "333333", "profile_use_background_image": true, "has_extended_profile": true, "default_profile": true, "default_profile_image": false, "following": false, "follow_request_sent": false, "notifications": false, "translator_type": "none", "withheld_in_countries": []}, "geo": null, "coordinates": null, "place": null, "contributors": null, "retweeted_status": {"created_at": "Mon Oct 04 18:45:08 +0000 2021", "id": 1445097671509827585, "id_str": "1445097671509827585", "full_text": "@JohnSmi34942630 @kentaylor56 @paulmasonnews My Yorkshire BiL tells me his local pig farmer clients are going to be culling their pigs soon (as was in the news over the w/e). How are you doing for blood test tubes? This image shows where sewage is being released due to water treatment shortages https://t.co/xitXU2S0hf", "truncated": false, "display_text_range": [45, 295], "entities": {"hashtags": [], "symbols": [], "user_mentions": [{"screen_name": "JohnSmi34942630", "name": "John Smith", "id": 1432653033276592128, "id_str": "1432653033276592128", "indices": [0, 16]}, {"screen_name": "kentaylor56", "name": "Ken Taylor \ud83c\udff4\udb40\udc67\udb40\udc62\udb40\udc73\udb40\udc63\udb40\udc74\udb40\udc7f\ud83c\uddea\ud83c\uddf8\ud83c\uddea\ud83c\uddfa #FBPE", "id": 148358189, "id_str": "148358189", "indices": [17, 29]}, {"screen_name": "paulmasonnews", "name": "Paul Mason", "id": 19811190, "id_str": "19811190", "indices": [30, 44]}], "urls": [], "media": [{"id": 1445097666648678402, "id_str": "1445097666648678402", "indices": [296, 319], "media_url": "http://pbs.twimg.com/media/FA4Eq95XIAI8EAI.jpg", "media_url_https": "https://pbs.twimg.com/media/FA4Eq95XIAI8EAI.jpg", "url": "https://t.co/xitXU2S0hf", "display_url": "pic.twitter.com/xitXU2S0hf", "expanded_url": "https://twitter.com/Minderbinder8/status/1445097671509827585/photo/1", "type": "photo", "sizes": {"thumb": {"w": 150, "h": 150, "resize": "crop"}, "large": {"w": 567, "h": 742, "resize": "fit"}, "small": {"w": 520, "h": 680, "resize": "fit"}, "medium": {"w": 567, "h": 742, "resize": "fit"}}}]}, "extended_entities": {"media": [{"id": 1445097666648678402, "id_str": "1445097666648678402", "indices": [296, 319], "media_url": "http://pbs.twimg.com/media/FA4Eq95XIAI8EAI.jpg", "media_url_https": "https://pbs.twimg.com/media/FA4Eq95XIAI8EAI.jpg", "url": "https://t.co/xitXU2S0hf", "display_url": "pic.twitter.com/xitXU2S0hf", "expanded_url": "https://twitter.com/Minderbinder8/status/1445097671509827585/photo/1", "type": "photo", "sizes": {"thumb": {"w": 150, "h": 150, "resize": "crop"}, "large": {"w": 567, "h": 742, "resize": "fit"}, "small": {"w": 520, "h": 680, "resize": "fit"}, "medium": {"w": 567, "h": 742, "resize": "fit"}}}]}, "metadata": {"iso_language_code": "en", "result_type": "recent"}, "source": "<a href=\"http://twitter.com/download/iphone\" rel=\"nofollow\">Twitter for iPhone</a>", "in_reply_to_status_id": 1445097149084090370, "in_reply_to_status_id_str": "1445097149084090370", "in_reply_to_user_id": 833232062618431489, "in_reply_to_user_id_str": "833232062618431489", "in_reply_to_screen_name": "Minderbinder8", "user": {"id": 833232062618431489, "id_str": "833232062618431489", "name": "Minderbinder", "screen_name": "Minderbinder8", "location": "", "description": "Dad. Game Designer. Creative Director. Tweet about stuff that bores friends and family. Opinions my own", "url": null, "entities": {"description": {"urls": []}}, "protected": false, "followers_count": 126, "friends_count": 845, "listed_count": 1, "created_at": "Sun Feb 19 08:29:39 +0000 2017", "favourites_count": 7691, "utc_offset": null, "time_zone": null, "geo_enabled": false, "verified": false, "statuses_count": 16001, "lang": null, "contributors_enabled": false, "is_translator": false, "is_translation_enabled": false, "profile_background_color": "F5F8FA", "profile_background_image_url": null, "profile_background_image_url_https": null, "profile_background_tile": false, "profile_image_url": "http://pbs.twimg.com/profile_images/1220104875767406593/8COxosE0_normal.jpg", "profile_image_url_https": "https://pbs.twimg.com/profile_images/1220104875767406593/8COxosE0_normal.jpg", "profile_banner_url": "https://pbs.twimg.com/profile_banners/833232062618431489/1587072407", "profile_link_color": "1DA1F2", "profile_sidebar_border_color": "C0DEED", "profile_sidebar_fill_color": "DDEEF6", "profile_text_color": "333333", "profile_use_background_image": true, "has_extended_profile": false, "default_profile": true, "default_profile_image": false, "following": false, "follow_request_sent": false, "notifications": false, "translator_type": "none", "withheld_in_countries": []}, "geo": null, "coordinates": null, "place": null, "contributors": null, "is_quote_status": false, "retweet_count": 3, "favorite_count": 2, "favorited": false, "retweeted": false, "possibly_sensitive": false, "lang": "en"}, "is_quote_status": false, "retweet_count": 3, "favorite_count": 0, "favorited": false, "retweeted": false, "lang": "en"}
{"created_at": "Mon Oct 04 18:45:08 +0000 2021", "id": 1445097671509827585, "id_str": "1445097671509827585", "full_text": "@JohnSmi34942630 @kentaylor56 @paulmasonnews My Yorkshire BiL tells me his local pig farmer clients are going to be culling their pigs soon (as was in the news over the w/e). How are you doing for blood test tubes? This image shows where sewage is being released due to water treatment shortages https://t.co/xitXU2S0hf", "truncated": false, "display_text_range": [45, 295], "entities": {"hashtags": [], "symbols": [], "user_mentions": [{"screen_name": "JohnSmi34942630", "name": "John Smith", "id": 1432653033276592128, "id_str": "1432653033276592128", "indices": [0, 16]}, {"screen_name": "kentaylor56", "name": "Ken Taylor \ud83c\udff4\udb40\udc67\udb40\udc62\udb40\udc73\udb40\udc63\udb40\udc74\udb40\udc7f\ud83c\uddea\ud83c\uddf8\ud83c\uddea\ud83c\uddfa #FBPE", "id": 148358189, "id_str": "148358189", "indices": [17, 29]}, {"screen_name": "paulmasonnews", "name": "Paul Mason", "id": 19811190, "id_str": "19811190", "indices": [30, 44]}], "urls": [], "media": [{"id": 1445097666648678402, "id_str": "1445097666648678402", "indices": [296, 319], "media_url": "http://pbs.twimg.com/media/FA4Eq95XIAI8EAI.jpg", "media_url_https": "https://pbs.twimg.com/media/FA4Eq95XIAI8EAI.jpg", "url": "https://t.co/xitXU2S0hf", "display_url": "pic.twitter.com/xitXU2S0hf", "expanded_url": "https://twitter.com/Minderbinder8/status/1445097671509827585/photo/1", "type": "photo", "sizes": {"thumb": {"w": 150, "h": 150, "resize": "crop"}, "large": {"w": 567, "h": 742, "resize": "fit"}, "small": {"w": 520, "h": 680, "resize": "fit"}, "medium": {"w": 567, "h": 742, "resize": "fit"}}}]}, "extended_entities": {"media": [{"id": 1445097666648678402, "id_str": "1445097666648678402", "indices": [296, 319], "media_url": "http://pbs.twimg.com/media/FA4Eq95XIAI8EAI.jpg", "media_url_https": "https://pbs.twimg.com/media/FA4Eq95XIAI8EAI.jpg", "url": "https://t.co/xitXU2S0hf", "display_url": "pic.twitter.com/xitXU2S0hf", "expanded_url": "https://twitter.com/Minderbinder8/status/1445097671509827585/photo/1", "type": "photo", "sizes": {"thumb": {"w": 150, "h": 150, "resize": "crop"}, "large": {"w": 567, "h": 742, "resize": "fit"}, "small": {"w": 520, "h": 680, "resize": "fit"}, "medium": {"w": 567, "h": 742, "resize": "fit"}}}]}, "metadata": {"iso_language_code": "en", "result_type": "recent"}, "source": "<a href=\"http://twitter.com/download/iphone\" rel=\"nofollow\">Twitter for iPhone</a>", "in_reply_to_status_id": 1445097149084090370, "in_reply_to_status_id_str": "1445097149084090370", "in_reply_to_user_id": 833232062618431489, "in_reply_to_user_id_str": "833232062618431489", "in_reply_to_screen_name": "Minderbinder8", "user": {"id": 833232062618431489, "id_str": "833232062618431489", "name": "Minderbinder", "screen_name": "Minderbinder8", "location": "", "description": "Dad. Game Designer. Creative Director. Tweet about stuff that bores friends and family. Opinions my own", "url": null, "entities": {"description": {"urls": []}}, "protected": false, "followers_count": 126, "friends_count": 845, "listed_count": 1, "created_at": "Sun Feb 19 08:29:39 +0000 2017", "favourites_count": 7691, "utc_offset": null, "time_zone": null, "geo_enabled": false, "verified": false, "statuses_count": 16001, "lang": null, "contributors_enabled": false, "is_translator": false, "is_translation_enabled": false, "profile_background_color": "F5F8FA", "profile_background_image_url": null, "profile_background_image_url_https": null, "profile_background_tile": false, "profile_image_url": "http://pbs.twimg.com/profile_images/1220104875767406593/8COxosE0_normal.jpg", "profile_image_url_https": "https://pbs.twimg.com/profile_images/1220104875767406593/8COxosE0_normal.jpg", "profile_banner_url": "https://pbs.twimg.com/profile_banners/833232062618431489/1587072407", "profile_link_color": "1DA1F2", "profile_sidebar_border_color": "C0DEED", "profile_sidebar_fill_color": "DDEEF6", "profile_text_color": "333333", "profile_use_background_image": true, "has_extended_profile": false, "default_profile": true, "default_profile_image": false, "following": false, "follow_request_sent": false, "notifications": false, "translator_type": "none", "withheld_in_countries": []}, "geo": null, "coordinates": null, "place": null, "contributors": null, "is_quote_status": false, "retweet_count": 3, "favorite_count": 2, "favorited": false, "retweeted": false, "possibly_sensitive": false, "lang": "en"}
{"created_at": "Thu Sep 30 16:51:19 +0000 2021", "id": 1443619478605008898, "id_str": "1443619478605008898", "full_text": "@YorkshireWater @andreajenkyns torrential rain this afternoon in Yorkshire and a shocking drainage issue at my dad's property has turned the garden into a sewage/surface water cesspit.More rain forecast and it is creeping closer to the house. He's reported it, no solution offered https://t.co/wDheqqqtKe", "truncated": false, "display_text_range": [0, 280], "entities": {"hashtags": [], "symbols": [], "user_mentions": [{"screen_name": "YorkshireWater", "name": "Yorkshire Water \ud83d\udca7", "id": 19709120, "id_str": "19709120", "indices": [0, 15]}, {"screen_name": "andreajenkyns", "name": "Andrea Jenkyns MP", "id": 1350441445, "id_str": "1350441445", "indices": [16, 30]}], "urls": [], "media": [{"id": 1443619468907790343, "id_str": "1443619468907790343", "indices": [281, 304], "media_url": "http://pbs.twimg.com/media/FAjEQiMWQAcyYkK.jpg", "media_url_https": "https://pbs.twimg.com/media/FAjEQiMWQAcyYkK.jpg", "url": "https://t.co/wDheqqqtKe", "display_url": "pic.twitter.com/wDheqqqtKe", "expanded_url": "https://twitter.com/BrownsFeatures/status/1443619478605008898/photo/1", "type": "photo", "sizes": {"medium": {"w": 676, "h": 1200, "resize": "fit"}, "thumb": {"w": 150, "h": 150, "resize": "crop"}, "small": {"w": 383, "h": 680, "resize": "fit"}, "large": {"w": 1153, "h": 2048, "resize": "fit"}}}]}, "extended_entities": {"media": [{"id": 1443619468907790343, "id_str": "1443619468907790343", "indices": [281, 304], "media_url": "http://pbs.twimg.com/media/FAjEQiMWQAcyYkK.jpg", "media_url_https": "https://pbs.twimg.com/media/FAjEQiMWQAcyYkK.jpg", "url": "https://t.co/wDheqqqtKe", "display_url": "pic.twitter.com/wDheqqqtKe", "expanded_url": "https://twitter.com/BrownsFeatures/status/1443619478605008898/photo/1", "type": "photo", "sizes": {"medium": {"w": 676, "h": 1200, "resize": "fit"}, "thumb": {"w": 150, "h": 150, "resize": "crop"}, "small": {"w": 383, "h": 680, "resize": "fit"}, "large": {"w": 1153, "h": 2048, "resize": "fit"}}}, {"id": 1443619475438383109, "id_str": "1443619475438383109", "indices": [281, 304], "media_url": "http://pbs.twimg.com/media/FAjEQ6hXMAUvnul.jpg", "media_url_https": "https://pbs.twimg.com/media/FAjEQ6hXMAUvnul.jpg", "url": "https://t.co/wDheqqqtKe", "display_url": "pic.twitter.com/wDheqqqtKe", "expanded_url": "https://twitter.com/BrownsFeatures/status/1443619478605008898/photo/1", "type": "photo", "sizes": {"medium": {"w": 900, "h": 1200, "resize": "fit"}, "thumb": {"w": 150, "h": 150, "resize": "crop"}, "small": {"w": 510, "h": 680, "resize": "fit"}, "large": {"w": 1536, "h": 2048, "resize": "fit"}}}]}, "metadata": {"iso_language_code": "en", "result_type": "recent"}, "source": "<a href=\"http://twitter.com/download/android\" rel=\"nofollow\">Twitter for Android</a>", "in_reply_to_status_id": null, "in_reply_to_status_id_str": null, "in_reply_to_user_id": 19709120, "in_reply_to_user_id_str": "19709120", "in_reply_to_screen_name": "YorkshireWater", "user": {"id": 260162681, "id_str": "260162681", "name": "Claire Dunwell", "screen_name": "BrownsFeatures", "location": "Yorkshire", "description": "Senior feature writer for Fabulous Daily, @TheSun. Love sharing stories about real folk. Yorkshire born and bred. claire.dunwell@the-sun.co.uk\nViews my own.", "url": "https://t.co/I3cTca9bHM", "entities": {"url": {"urls": [{"url": "https://t.co/I3cTca9bHM", "expanded_url": "http://www.sellmeyourstory.co.uk", "display_url": "sellmeyourstory.co.uk", "indices": [0, 23]}]}, "description": {"urls": []}}, "protected": false, "followers_count": 2762, "friends_count": 1080, "listed_count": 30, "created_at": "Thu Mar 03 09:48:11 +0000 2011", "favourites_count": 844, "utc_offset": null, "time_zone": null, "geo_enabled": false, "verified": false, "statuses_count": 1636, "lang": null, "contributors_enabled": false, "is_translator": false, "is_translation_enabled": false, "profile_background_color": "000000", "profile_background_image_url": "http://abs.twimg.com/images/themes/theme1/bg.png", "profile_background_image_url_https": "https://abs.twimg.com/images/themes/theme1/bg.png", "profile_background_tile": false, "profile_image_url": "http://pbs.twimg.com/profile_images/1355629267053408258/nnK2weoW_normal.jpg", "profile_image_url_https": "https://pbs.twimg.com/profile_images/1355629267053408258/nnK2weoW_normal.jpg", "profile_banner_url": "https://pbs.twimg.com/profile_banners/260162681/1483538465", "profile_link_color": "FF691F", "profile_sidebar_border_color": "000000", "profile_sidebar_fill_color": "000000", "profile_text_color": "000000", "profile_use_background_image": false, "has_extended_profile": false, "default_profile": false, "default_profile_image": false, "following": false, "follow_request_sent": false, "notifications": false, "translator_type": "none", "withheld_in_countries": []}, "geo": null, "coordinates": null, "place": null, "contributors": null, "is_quote_status": false, "retweet_count": 0, "favorite_count": 0, "favorited": false, "retweeted": false, "possibly_sensitive": false, "lang": "en"}
