{"created_at": "Tue Oct 12 20:44:19 +0000 2021", "id": 1448026771383721988, "id_str": "1448026771383721988", "full_text": "First time #kayaking and we had so much fun and no one fell in!!!\n\n#kayakingadventures #kayakingfamily #familyphoto #familyadventures #albionca #ca #california #cali #albion #funadventures #outdoor #river #water #trees https://t.co/4AiIghi6lb", "truncated": false, "display_text_range": [0, 242], "entities": {"hashtags": [{"text": "kayaking", "indices": [11, 20]}, {"text": "kayakingadventures", "indices": [67, 86]}, {"text": "kayakingfamily", "indices": [87, 102]}, {"text": "familyphoto", "indices": [103, 115]}, {"text": "familyadventures", "indices": [116, 133]}, {"text": "albionca", "indices": [134, 143]}, {"text": "ca", "indices": [144, 147]}, {"text": "california", "indices": [148, 159]}, {"text": "cali", "indices": [160, 165]}, {"text": "albion", "indices": [166, 173]}, {"text": "funadventures", "indices": [174, 188]}, {"text": "outdoor", "indices": [189, 197]}, {"text": "river", "indices": [198, 204]}, {"text": "water", "indices": [205, 211]}, {"text": "trees", "indices": [212, 218]}], "symbols": [], "user_mentions": [], "urls": [{"url": "https://t.co/4AiIghi6lb", "expanded_url": "https://www.instagram.com/p/CU8UMmqBc7U/?utm_medium=twitter", "display_url": "instagram.com/p/CU8UMmqBc7U/\u2026", "indices": [219, 242]}]}, "metadata": {"iso_language_code": "en", "result_type": "recent"}, "source": "<a href=\"http://instagram.com\" rel=\"nofollow\">Instagram</a>", "in_reply_to_status_id": null, "in_reply_to_status_id_str": null, "in_reply_to_user_id": null, "in_reply_to_user_id_str": null, "in_reply_to_screen_name": null, "user": {"id": 2420827680, "id_str": "2420827680", "name": "Crystal Carder", "screen_name": "crystalcarder", "location": "Maryland, USA", "description": "PR Friendly, Mom of 3 awesome kids, Wife, Mommy Blogger/Lifestyle Blogger, Reviews, Giveaways, Travel Enthusiast, Tips & More", "url": "https://t.co/HuGiFAP8iB", "entities": {"url": {"urls": [{"url": "https://t.co/HuGiFAP8iB", "expanded_url": "http://crystalcarder.com", "display_url": "crystalcarder.com", "indices": [0, 23]}]}, "description": {"urls": []}}, "protected": false, "followers_count": 5631, "friends_count": 2849, "listed_count": 196, "created_at": "Mon Mar 31 17:09:43 +0000 2014", "favourites_count": 3455, "utc_offset": null, "time_zone": null, "geo_enabled": false, "verified": false, "statuses_count": 14006, "lang": null, "contributors_enabled": false, "is_translator": false, "is_translation_enabled": false, "profile_background_color": "000000", "profile_background_image_url": "http://abs.twimg.com/images/themes/theme11/bg.gif", "profile_background_image_url_https": "https://abs.twimg.com/images/themes/theme11/bg.gif", "profile_background_tile": false, "profile_image_url": "http://pbs.twimg.com/profile_images/1385590548048842753/xOzY_A1J_normal.jpg", "profile_image_url_https": "https://pbs.twimg.com/profile_images/1385590548048842753/xOzY_A1J_normal.jpg", "profile_banner_url": "https://pbs.twimg.com/profile_banners/2420827680/1617129618", "profile_link_color": "F5ABB5", "profile_sidebar_border_color": "000000", "profile_sidebar_fill_color": "000000", "profile_text_color": "000000", "profile_use_background_image": false, "has_extended_profile": true, "default_profile": false, "default_profile_image": false, "following": false, "follow_request_sent": false, "notifications": false, "translator_type": "none", "withheld_in_countries": []}, "geo": null, "coordinates": null, "place": null, "contributors": null, "is_quote_status": false, "retweet_count": 0, "favorite_count": 0, "favorited": false, "retweeted": false, "possibly_sensitive": false, "lang": "en"}
{"created_at": "Tue Oct 12 19:47:02 +0000 2021", "id": 1448012353736429575, "id_str": "1448012353736429575", "full_text": "@BaggieGraham There\u2019s water on the concourse at the Albion Graham. The end is nigh \ud83d\ude02", "truncated": false, "display_text_range": [14, 84], "entities": {"hashtags": [], "symbols": [], "user_mentions": [{"screen_name": "BaggieGraham", "name": "Graham Haines", "id": 961350852, "id_str": "961350852", "indices": [0, 13]}], "urls": []}, "metadata": {"iso_language_code": "en", "result_type": "recent"}, "source": "<a href=\"http://twitter.com/download/iphone\" rel=\"nofollow\">Twitter for iPhone</a>", "in_reply_to_status_id": 1447984586491895819, "in_reply_to_status_id_str": "1447984586491895819", "in_reply_to_user_id": 961350852, "in_reply_to_user_id_str": "961350852", "in_reply_to_screen_name": "BaggieGraham", "user": {"id": 513617366, "id_str": "513617366", "name": "L\uf8ffNEY", "screen_name": "laneyditch", "location": "The Ditch", "description": "", "url": null, "entities": {"description": {"urls": []}}, "protected": false, "followers_count": 706, "friends_count": 587, "listed_count": 7, "created_at": "Sat Mar 03 21:22:54 +0000 2012", "favourites_count": 1413, "utc_offset": null, "time_zone": null, "geo_enabled": true, "verified": false, "statuses_count": 14204, "lang": null, "contributors_enabled": false, "is_translator": false, "is_translation_enabled": false, "profile_background_color": "C0DEED", "profile_background_image_url": "http://abs.twimg.com/images/themes/theme1/bg.png", "profile_background_image_url_https": "https://abs.twimg.com/images/themes/theme1/bg.png", "profile_background_tile": false, "profile_image_url": "http://pbs.twimg.com/profile_images/1441490066052771846/XUyt0Bp6_normal.jpg", "profile_image_url_https": "https://pbs.twimg.com/profile_images/1441490066052771846/XUyt0Bp6_normal.jpg", "profile_banner_url": "https://pbs.twimg.com/profile_banners/513617366/1632512973", "profile_link_color": "1DA1F2", "profile_sidebar_border_color": "C0DEED", "profile_sidebar_fill_color": "DDEEF6", "profile_text_color": "333333", "profile_use_background_image": true, "has_extended_profile": true, "default_profile": true, "default_profile_image": false, "following": false, "follow_request_sent": false, "notifications": false, "translator_type": "none", "withheld_in_countries": []}, "geo": null, "coordinates": null, "place": null, "contributors": null, "is_quote_status": false, "retweet_count": 0, "favorite_count": 0, "favorited": false, "retweeted": false, "lang": "en"}
{"created_at": "Mon Oct 11 23:47:55 +0000 2021", "id": 1447710584133193733, "id_str": "1447710584133193733", "full_text": "@BobHend74166920 @juniorwaugh349 It\u2019s settled in now at Albion Park too about 15km south of Kembla. Definitely moving into Slow/Heavy territory \nOn the plus side it\u2019s helping water in the fertiliser on my lawn \ud83d\ude01", "truncated": false, "display_text_range": [33, 211], "entities": {"hashtags": [], "symbols": [], "user_mentions": [{"screen_name": "BobHend74166920", "name": "Bh", "id": 1192318094804279296, "id_str": "1192318094804279296", "indices": [0, 16]}, {"screen_name": "juniorwaugh349", "name": "Mark Waugh", "id": 744756579178668032, "id_str": "744756579178668032", "indices": [17, 32]}], "urls": []}, "metadata": {"iso_language_code": "en", "result_type": "recent"}, "source": "<a href=\"http://twitter.com/download/iphone\" rel=\"nofollow\">Twitter for iPhone</a>", "in_reply_to_status_id": 1447682289123545090, "in_reply_to_status_id_str": "1447682289123545090", "in_reply_to_user_id": 1192318094804279296, "in_reply_to_user_id_str": "1192318094804279296", "in_reply_to_screen_name": "BobHend74166920", "user": {"id": 272804301, "id_str": "272804301", "name": "Travis McMahon", "screen_name": "travisty104", "location": "On the Lounge eating snacks", "description": "John Daly and Jim Furyk\u2019s love child. Member of the Medium Pacers Cartel.", "url": null, "entities": {"description": {"urls": []}}, "protected": false, "followers_count": 286, "friends_count": 1487, "listed_count": 0, "created_at": "Sun Mar 27 06:32:57 +0000 2011", "favourites_count": 9857, "utc_offset": null, "time_zone": null, "geo_enabled": true, "verified": false, "statuses_count": 7154, "lang": null, "contributors_enabled": false, "is_translator": false, "is_translation_enabled": false, "profile_background_color": "C0DEED", "profile_background_image_url": "http://abs.twimg.com/images/themes/theme1/bg.png", "profile_background_image_url_https": "https://abs.twimg.com/images/themes/theme1/bg.png", "profile_background_tile": false, "profile_image_url": "http://pbs.twimg.com/profile_images/1386607621994516480/_XLjeAm2_normal.jpg", "profile_image_url_https": "https://pbs.twimg.com/profile_images/1386607621994516480/_XLjeAm2_normal.jpg", "profile_banner_url": "https://pbs.twimg.com/profile_banners/272804301/1494590090", "profile_link_color": "1DA1F2", "profile_sidebar_border_color": "C0DEED", "profile_sidebar_fill_color": "DDEEF6", "profile_text_color": "333333", "profile_use_background_image": true, "has_extended_profile": false, "default_profile": true, "default_profile_image": false, "following": false, "follow_request_sent": false, "notifications": false, "translator_type": "none", "withheld_in_countries": []}, "geo": null, "coordinates": null, "place": null, "contributors": null, "is_quote_status": false, "retweet_count": 0, "favorite_count": 1, "favorited": false, "retweeted": false, "lang": "en"}
{"created_at": "Mon Oct 11 21:20:03 +0000 2021", "id": 1447673373132304389, "id_str": "1447673373132304389", "full_text": "Members of the School for Public Purpose and the Albion Community celebrated Indigenous Peoples Day today at @WNCalbion.\n\nAn Anishinabek water ceremony was preformed, followed by activities celebrating the people's relationship with wild rice. #MyAlbion https://t.co/FtJ0VivdMB", "truncated": false, "display_text_range": [0, 253], "entities": {"hashtags": [{"text": "MyAlbion", "indices": [244, 253]}], "symbols": [], "user_mentions": [{"screen_name": "WNCalbion", "name": "Whitehouse Nature Center at Albion College", "id": 1029048225951621125, "id_str": "1029048225951621125", "indices": [109, 119]}], "urls": [], "media": [{"id": 1447673371550957571, "id_str": "1447673371550957571", "indices": [254, 277], "media_url": "http://pbs.twimg.com/media/FBcrQuYWQAMl3jv.jpg", "media_url_https": "https://pbs.twimg.com/media/FBcrQuYWQAMl3jv.jpg", "url": "https://t.co/FtJ0VivdMB", "display_url": "pic.twitter.com/FtJ0VivdMB", "expanded_url": "https://twitter.com/albioncollege/status/1447673373132304389/photo/1", "type": "photo", "sizes": {"thumb": {"w": 150, "h": 150, "resize": "crop"}, "small": {"w": 680, "h": 453, "resize": "fit"}, "medium": {"w": 900, "h": 600, "resize": "fit"}, "large": {"w": 900, "h": 600, "resize": "fit"}}}]}, "extended_entities": {"media": [{"id": 1447673371550957571, "id_str": "1447673371550957571", "indices": [254, 277], "media_url": "http://pbs.twimg.com/media/FBcrQuYWQAMl3jv.jpg", "media_url_https": "https://pbs.twimg.com/media/FBcrQuYWQAMl3jv.jpg", "url": "https://t.co/FtJ0VivdMB", "display_url": "pic.twitter.com/FtJ0VivdMB", "expanded_url": "https://twitter.com/albioncollege/status/1447673373132304389/photo/1", "type": "photo", "sizes": {"thumb": {"w": 150, "h": 150, "resize": "crop"}, "small": {"w": 680, "h": 453, "resize": "fit"}, "medium": {"w": 900, "h": 600, "resize": "fit"}, "large": {"w": 900, "h": 600, "resize": "fit"}}}, {"id": 1447673371752378371, "id_str": "1447673371752378371", "indices": [254, 277], "media_url": "http://pbs.twimg.com/media/FBcrQvIXsAMkRQb.jpg", "media_url_https": "https://pbs.twimg.com/media/FBcrQvIXsAMkRQb.jpg", "url": "https://t.co/FtJ0VivdMB", "display_url": "pic.twitter.com/FtJ0VivdMB", "expanded_url": "https://twitter.com/albioncollege/status/1447673373132304389/photo/1", "type": "photo", "sizes": {"thumb": {"w": 150, "h": 150, "resize": "crop"}, "large": {"w": 1080, "h": 720, "resize": "fit"}, "small": {"w": 680, "h": 453, "resize": "fit"}, "medium": {"w": 1080, "h": 720, "resize": "fit"}}}, {"id": 1447673371102261248, "id_str": "1447673371102261248", "indices": [254, 277], "media_url": "http://pbs.twimg.com/media/FBcrQstXsAAyUD4.jpg", "media_url_https": "https://pbs.twimg.com/media/FBcrQstXsAAyUD4.jpg", "url": "https://t.co/FtJ0VivdMB", "display_url": "pic.twitter.com/FtJ0VivdMB", "expanded_url": "https://twitter.com/albioncollege/status/1447673373132304389/photo/1", "type": "photo", "sizes": {"small": {"w": 680, "h": 453, "resize": "fit"}, "thumb": {"w": 150, "h": 150, "resize": "crop"}, "medium": {"w": 1080, "h": 720, "resize": "fit"}, "large": {"w": 1080, "h": 720, "resize": "fit"}}}, {"id": 1447673371249020936, "id_str": "1447673371249020936", "indices": [254, 277], "media_url": "http://pbs.twimg.com/media/FBcrQtQXEAgteD6.jpg", "media_url_https": "https://pbs.twimg.com/media/FBcrQtQXEAgteD6.jpg", "url": "https://t.co/FtJ0VivdMB", "display_url": "pic.twitter.com/FtJ0VivdMB", "expanded_url": "https://twitter.com/albioncollege/status/1447673373132304389/photo/1", "type": "photo", "sizes": {"thumb": {"w": 150, "h": 150, "resize": "crop"}, "small": {"w": 680, "h": 453, "resize": "fit"}, "medium": {"w": 1080, "h": 720, "resize": "fit"}, "large": {"w": 1080, "h": 720, "resize": "fit"}}}]}, "metadata": {"iso_language_code": "en", "result_type": "recent"}, "source": "<a href=\"https://www.hootsuite.com\" rel=\"nofollow\">Hootsuite Inc.</a>", "in_reply_to_status_id": null, "in_reply_to_status_id_str": null, "in_reply_to_user_id": null, "in_reply_to_user_id_str": null, "in_reply_to_screen_name": null, "user": {"id": 19346558, "id_str": "19346558", "name": "Albion College", "screen_name": "albioncollege", "location": "Albion, Michigan, USA", "description": "Albion College provides students the knowledge, skills and experiences to succeed in college, in their career and in their life. #MyAlbion", "url": "https://t.co/4kxbakLkxS", "entities": {"url": {"urls": [{"url": "https://t.co/4kxbakLkxS", "expanded_url": "http://www.albion.edu", "display_url": "albion.edu", "indices": [0, 23]}]}, "description": {"urls": []}}, "protected": false, "followers_count": 5568, "friends_count": 694, "listed_count": 121, "created_at": "Thu Jan 22 16:38:09 +0000 2009", "favourites_count": 2201, "utc_offset": null, "time_zone": null, "geo_enabled": true, "verified": true, "statuses_count": 13784, "lang": null, "contributors_enabled": false, "is_translator": false, "is_translation_enabled": false, "profile_background_color": "5A214A", "profile_background_image_url": "http://abs.twimg.com/images/themes/theme1/bg.png", "profile_background_image_url_https": "https://abs.twimg.com/images/themes/theme1/bg.png", "profile_background_tile": false, "profile_image_url": "http://pbs.twimg.com/profile_images/1351951352574967812/Obahdky8_normal.jpg", "profile_image_url_https": "https://pbs.twimg.com/profile_images/1351951352574967812/Obahdky8_normal.jpg", "profile_banner_url": "https://pbs.twimg.com/profile_banners/19346558/1489006229", "profile_link_color": "330066", "profile_sidebar_border_color": "ABA28C", "profile_sidebar_fill_color": "D6CEB6", "profile_text_color": "333333", "profile_use_background_image": true, "has_extended_profile": false, "default_profile": false, "default_profile_image": false, "following": false, "follow_request_sent": false, "notifications": false, "translator_type": "none", "withheld_in_countries": []}, "geo": null, "coordinates": null, "place": null, "contributors": null, "is_quote_status": false, "retweet_count": 0, "favorite_count": 7, "favorited": false, "retweeted": false, "possibly_sensitive": false, "lang": "en"}
{"created_at": "Sun Oct 10 19:00:14 +0000 2021", "id": 1447275801351700492, "id_str": "1447275801351700492", "full_text": "#NWCNewstream | #Reminder | The NWC is advising its customers that repair work is still on going along the pipeline network supplied by the Albion Heights water supply facility. Customers that are supplied by the system will continue to experience a disruption.\n\nSee full release: https://t.co/wcu366Crfb", "truncated": false, "display_text_range": [0, 280], "entities": {"hashtags": [{"text": "NWCNewstream", "indices": [0, 13]}, {"text": "Reminder", "indices": [16, 25]}], "symbols": [], "user_mentions": [], "urls": [], "media": [{"id": 1447275800189968397, "id_str": "1447275800189968397", "indices": [281, 304], "media_url": "http://pbs.twimg.com/media/FBXBrBpXoA0owsN.jpg", "media_url_https": "https://pbs.twimg.com/media/FBXBrBpXoA0owsN.jpg", "url": "https://t.co/wcu366Crfb", "display_url": "pic.twitter.com/wcu366Crfb", "expanded_url": "https://twitter.com/NWCjam/status/1447275801351700492/photo/1", "type": "photo", "sizes": {"small": {"w": 680, "h": 680, "resize": "fit"}, "thumb": {"w": 150, "h": 150, "resize": "crop"}, "large": {"w": 1080, "h": 1080, "resize": "fit"}, "medium": {"w": 1080, "h": 1080, "resize": "fit"}}}]}, "extended_entities": {"media": [{"id": 1447275800189968397, "id_str": "1447275800189968397", "indices": [281, 304], "media_url": "http://pbs.twimg.com/media/FBXBrBpXoA0owsN.jpg", "media_url_https": "https://pbs.twimg.com/media/FBXBrBpXoA0owsN.jpg", "url": "https://t.co/wcu366Crfb", "display_url": "pic.twitter.com/wcu366Crfb", "expanded_url": "https://twitter.com/NWCjam/status/1447275801351700492/photo/1", "type": "photo", "sizes": {"small": {"w": 680, "h": 680, "resize": "fit"}, "thumb": {"w": 150, "h": 150, "resize": "crop"}, "large": {"w": 1080, "h": 1080, "resize": "fit"}, "medium": {"w": 1080, "h": 1080, "resize": "fit"}}}, {"id": 1447275800076726272, "id_str": "1447275800076726272", "indices": [281, 304], "media_url": "http://pbs.twimg.com/media/FBXBrBOXsAAC4bD.jpg", "media_url_https": "https://pbs.twimg.com/media/FBXBrBOXsAAC4bD.jpg", "url": "https://t.co/wcu366Crfb", "display_url": "pic.twitter.com/wcu366Crfb", "expanded_url": "https://twitter.com/NWCjam/status/1447275801351700492/photo/1", "type": "photo", "sizes": {"thumb": {"w": 150, "h": 150, "resize": "crop"}, "medium": {"w": 433, "h": 345, "resize": "fit"}, "small": {"w": 433, "h": 345, "resize": "fit"}, "large": {"w": 433, "h": 345, "resize": "fit"}}}]}, "metadata": {"iso_language_code": "en", "result_type": "recent"}, "source": "<a href=\"https://www.hootsuite.com\" rel=\"nofollow\">Hootsuite Inc.</a>", "in_reply_to_status_id": null, "in_reply_to_status_id_str": null, "in_reply_to_user_id": null, "in_reply_to_user_id_str": null, "in_reply_to_screen_name": null, "user": {"id": 213725020, "id_str": "213725020", "name": "NWC Jamaica", "screen_name": "NWCjam", "location": "Jamaica", "description": "Take the hassle out of your NWC water bill payment! Skip the line and have your account updated immediately with #NWCIPAY \nhttps://t.co/8y2KxhKbar", "url": "https://t.co/LvYckX9ocG", "entities": {"url": {"urls": [{"url": "https://t.co/LvYckX9ocG", "expanded_url": "https://www.nwcjamaica.com", "display_url": "nwcjamaica.com", "indices": [0, 23]}]}, "description": {"urls": [{"url": "https://t.co/8y2KxhKbar", "expanded_url": "https://ipay.nwcjamaica.com/", "display_url": "ipay.nwcjamaica.com", "indices": [123, 146]}]}}, "protected": false, "followers_count": 14169, "friends_count": 562, "listed_count": 55, "created_at": "Tue Nov 09 16:55:36 +0000 2010", "favourites_count": 6280, "utc_offset": null, "time_zone": null, "geo_enabled": false, "verified": false, "statuses_count": 22381, "lang": null, "contributors_enabled": false, "is_translator": false, "is_translation_enabled": false, "profile_background_color": "000000", "profile_background_image_url": "http://abs.twimg.com/images/themes/theme1/bg.png", "profile_background_image_url_https": "https://abs.twimg.com/images/themes/theme1/bg.png", "profile_background_tile": false, "profile_image_url": "http://pbs.twimg.com/profile_images/1444403348321472514/91bC16Gj_normal.jpg", "profile_image_url_https": "https://pbs.twimg.com/profile_images/1444403348321472514/91bC16Gj_normal.jpg", "profile_banner_url": "https://pbs.twimg.com/profile_banners/213725020/1628803771", "profile_link_color": "89C9FA", "profile_sidebar_border_color": "000000", "profile_sidebar_fill_color": "000000", "profile_text_color": "000000", "profile_use_background_image": false, "has_extended_profile": false, "default_profile": false, "default_profile_image": false, "following": false, "follow_request_sent": false, "notifications": false, "translator_type": "none", "withheld_in_countries": []}, "geo": null, "coordinates": null, "place": null, "contributors": null, "is_quote_status": false, "retweet_count": 0, "favorite_count": 1, "favorited": false, "retweeted": false, "possibly_sensitive": false, "lang": "en"}
{"created_at": "Sun Oct 10 03:20:48 +0000 2021", "id": 1447039385137041408, "id_str": "1447039385137041408", "full_text": "#NWCNewstream |The NWC is advising its customers that repair work is still on going along the pipeline network supplied by the Albion Heights water supply facility.  Customers that are supplied by the system will continue to experience a disruption in their piped water supply. https://t.co/u4hbhI0WDH", "truncated": false, "display_text_range": [0, 277], "entities": {"hashtags": [{"text": "NWCNewstream", "indices": [0, 13]}], "symbols": [], "user_mentions": [], "urls": [], "media": [{"id": 1447039384046481410, "id_str": "1447039384046481410", "indices": [278, 301], "media_url": "http://pbs.twimg.com/media/FBTqpy4XMAIHkaB.jpg", "media_url_https": "https://pbs.twimg.com/media/FBTqpy4XMAIHkaB.jpg", "url": "https://t.co/u4hbhI0WDH", "display_url": "pic.twitter.com/u4hbhI0WDH", "expanded_url": "https://twitter.com/NWCjam/status/1447039385137041408/photo/1", "type": "photo", "sizes": {"small": {"w": 680, "h": 680, "resize": "fit"}, "thumb": {"w": 150, "h": 150, "resize": "crop"}, "large": {"w": 1080, "h": 1080, "resize": "fit"}, "medium": {"w": 1080, "h": 1080, "resize": "fit"}}}]}, "extended_entities": {"media": [{"id": 1447039384046481410, "id_str": "1447039384046481410", "indices": [278, 301], "media_url": "http://pbs.twimg.com/media/FBTqpy4XMAIHkaB.jpg", "media_url_https": "https://pbs.twimg.com/media/FBTqpy4XMAIHkaB.jpg", "url": "https://t.co/u4hbhI0WDH", "display_url": "pic.twitter.com/u4hbhI0WDH", "expanded_url": "https://twitter.com/NWCjam/status/1447039385137041408/photo/1", "type": "photo", "sizes": {"small": {"w": 680, "h": 680, "resize": "fit"}, "thumb": {"w": 150, "h": 150, "resize": "crop"}, "large": {"w": 1080, "h": 1080, "resize": "fit"}, "medium": {"w": 1080, "h": 1080, "resize": "fit"}}}, {"id": 1447039383794761728, "id_str": "1447039383794761728", "indices": [278, 301], "media_url": "http://pbs.twimg.com/media/FBTqpx8WQAAXm42.jpg", "media_url_https": "https://pbs.twimg.com/media/FBTqpx8WQAAXm42.jpg", "url": "https://t.co/u4hbhI0WDH", "display_url": "pic.twitter.com/u4hbhI0WDH", "expanded_url": "https://twitter.com/NWCjam/status/1447039385137041408/photo/1", "type": "photo", "sizes": {"thumb": {"w": 150, "h": 150, "resize": "crop"}, "medium": {"w": 433, "h": 345, "resize": "fit"}, "small": {"w": 433, "h": 345, "resize": "fit"}, "large": {"w": 433, "h": 345, "resize": "fit"}}}]}, "metadata": {"iso_language_code": "en", "result_type": "recent"}, "source": "<a href=\"https://www.hootsuite.com\" rel=\"nofollow\">Hootsuite Inc.</a>", "in_reply_to_status_id": null, "in_reply_to_status_id_str": null, "in_reply_to_user_id": null, "in_reply_to_user_id_str": null, "in_reply_to_screen_name": null, "user": {"id": 213725020, "id_str": "213725020", "name": "NWC Jamaica", "screen_name": "NWCjam", "location": "Jamaica", "description": "Take the hassle out of your NWC water bill payment! Skip the line and have your account updated immediately with #NWCIPAY \nhttps://t.co/8y2KxhKbar", "url": "https://t.co/LvYckX9ocG", "entities": {"url": {"urls": [{"url": "https://t.co/LvYckX9ocG", "expanded_url": "https://www.nwcjamaica.com", "display_url": "nwcjamaica.com", "indices": [0, 23]}]}, "description": {"urls": [{"url": "https://t.co/8y2KxhKbar", "expanded_url": "https://ipay.nwcjamaica.com/", "display_url": "ipay.nwcjamaica.com", "indices": [123, 146]}]}}, "protected": false, "followers_count": 14169, "friends_count": 562, "listed_count": 55, "created_at": "Tue Nov 09 16:55:36 +0000 2010", "favourites_count": 6280, "utc_offset": null, "time_zone": null, "geo_enabled": false, "verified": false, "statuses_count": 22381, "lang": null, "contributors_enabled": false, "is_translator": false, "is_translation_enabled": false, "profile_background_color": "000000", "profile_background_image_url": "http://abs.twimg.com/images/themes/theme1/bg.png", "profile_background_image_url_https": "https://abs.twimg.com/images/themes/theme1/bg.png", "profile_background_tile": false, "profile_image_url": "http://pbs.twimg.com/profile_images/1444403348321472514/91bC16Gj_normal.jpg", "profile_image_url_https": "https://pbs.twimg.com/profile_images/1444403348321472514/91bC16Gj_normal.jpg", "profile_banner_url": "https://pbs.twimg.com/profile_banners/213725020/1628803771", "profile_link_color": "89C9FA", "profile_sidebar_border_color": "000000", "profile_sidebar_fill_color": "000000", "profile_text_color": "000000", "profile_use_background_image": false, "has_extended_profile": false, "default_profile": false, "default_profile_image": false, "following": false, "follow_request_sent": false, "notifications": false, "translator_type": "none", "withheld_in_countries": []}, "geo": null, "coordinates": null, "place": null, "contributors": null, "is_quote_status": false, "retweet_count": 0, "favorite_count": 1, "favorited": false, "retweeted": false, "possibly_sensitive": false, "lang": "en"}
{"created_at": "Fri Oct 08 14:51:40 +0000 2021", "id": 1446488472324354054, "id_str": "1446488472324354054", "full_text": "#NWCNewstream | The NWC is advising its customers that a broken section of pipeline has forced the shutdown of the Albion Heights water supply facility in St Thomas.  This will result in a disruption of supply for several hours to customers supplied by the plant. https://t.co/DWOsAlBzlg", "truncated": false, "display_text_range": [0, 263], "entities": {"hashtags": [{"text": "NWCNewstream", "indices": [0, 13]}], "symbols": [], "user_mentions": [], "urls": [], "media": [{"id": 1446488470311030787, "id_str": "1446488470311030787", "indices": [264, 287], "media_url": "http://pbs.twimg.com/media/FBL1mZSWUAMIL8i.jpg", "media_url_https": "https://pbs.twimg.com/media/FBL1mZSWUAMIL8i.jpg", "url": "https://t.co/DWOsAlBzlg", "display_url": "pic.twitter.com/DWOsAlBzlg", "expanded_url": "https://twitter.com/NWCjam/status/1446488472324354054/photo/1", "type": "photo", "sizes": {"medium": {"w": 1080, "h": 1080, "resize": "fit"}, "thumb": {"w": 150, "h": 150, "resize": "crop"}, "small": {"w": 680, "h": 680, "resize": "fit"}, "large": {"w": 1080, "h": 1080, "resize": "fit"}}}]}, "extended_entities": {"media": [{"id": 1446488470311030787, "id_str": "1446488470311030787", "indices": [264, 287], "media_url": "http://pbs.twimg.com/media/FBL1mZSWUAMIL8i.jpg", "media_url_https": "https://pbs.twimg.com/media/FBL1mZSWUAMIL8i.jpg", "url": "https://t.co/DWOsAlBzlg", "display_url": "pic.twitter.com/DWOsAlBzlg", "expanded_url": "https://twitter.com/NWCjam/status/1446488472324354054/photo/1", "type": "photo", "sizes": {"medium": {"w": 1080, "h": 1080, "resize": "fit"}, "thumb": {"w": 150, "h": 150, "resize": "crop"}, "small": {"w": 680, "h": 680, "resize": "fit"}, "large": {"w": 1080, "h": 1080, "resize": "fit"}}}, {"id": 1446488470478893061, "id_str": "1446488470478893061", "indices": [264, 287], "media_url": "http://pbs.twimg.com/media/FBL1mZ6XsAUZcrl.jpg", "media_url_https": "https://pbs.twimg.com/media/FBL1mZ6XsAUZcrl.jpg", "url": "https://t.co/DWOsAlBzlg", "display_url": "pic.twitter.com/DWOsAlBzlg", "expanded_url": "https://twitter.com/NWCjam/status/1446488472324354054/photo/1", "type": "photo", "sizes": {"thumb": {"w": 150, "h": 150, "resize": "crop"}, "medium": {"w": 294, "h": 429, "resize": "fit"}, "small": {"w": 294, "h": 429, "resize": "fit"}, "large": {"w": 294, "h": 429, "resize": "fit"}}}]}, "metadata": {"iso_language_code": "en", "result_type": "recent"}, "source": "<a href=\"https://www.hootsuite.com\" rel=\"nofollow\">Hootsuite Inc.</a>", "in_reply_to_status_id": null, "in_reply_to_status_id_str": null, "in_reply_to_user_id": null, "in_reply_to_user_id_str": null, "in_reply_to_screen_name": null, "user": {"id": 213725020, "id_str": "213725020", "name": "NWC Jamaica", "screen_name": "NWCjam", "location": "Jamaica", "description": "Take the hassle out of your NWC water bill payment! Skip the line and have your account updated immediately with #NWCIPAY \nhttps://t.co/8y2KxhKbar", "url": "https://t.co/LvYckX9ocG", "entities": {"url": {"urls": [{"url": "https://t.co/LvYckX9ocG", "expanded_url": "https://www.nwcjamaica.com", "display_url": "nwcjamaica.com", "indices": [0, 23]}]}, "description": {"urls": [{"url": "https://t.co/8y2KxhKbar", "expanded_url": "https://ipay.nwcjamaica.com/", "display_url": "ipay.nwcjamaica.com", "indices": [123, 146]}]}}, "protected": false, "followers_count": 14169, "friends_count": 562, "listed_count": 55, "created_at": "Tue Nov 09 16:55:36 +0000 2010", "favourites_count": 6280, "utc_offset": null, "time_zone": null, "geo_enabled": false, "verified": false, "statuses_count": 22381, "lang": null, "contributors_enabled": false, "is_translator": false, "is_translation_enabled": false, "profile_background_color": "000000", "profile_background_image_url": "http://abs.twimg.com/images/themes/theme1/bg.png", "profile_background_image_url_https": "https://abs.twimg.com/images/themes/theme1/bg.png", "profile_background_tile": false, "profile_image_url": "http://pbs.twimg.com/profile_images/1444403348321472514/91bC16Gj_normal.jpg", "profile_image_url_https": "https://pbs.twimg.com/profile_images/1444403348321472514/91bC16Gj_normal.jpg", "profile_banner_url": "https://pbs.twimg.com/profile_banners/213725020/1628803771", "profile_link_color": "89C9FA", "profile_sidebar_border_color": "000000", "profile_sidebar_fill_color": "000000", "profile_text_color": "000000", "profile_use_background_image": false, "has_extended_profile": false, "default_profile": false, "default_profile_image": false, "following": false, "follow_request_sent": false, "notifications": false, "translator_type": "none", "withheld_in_countries": []}, "geo": null, "coordinates": null, "place": null, "contributors": null, "is_quote_status": false, "retweet_count": 0, "favorite_count": 0, "favorited": false, "retweeted": false, "possibly_sensitive": false, "lang": "en"}
{"created_at": "Fri Oct 08 08:17:57 +0000 2021", "id": 1446389390243246082, "id_str": "1446389390243246082", "full_text": "RT @BroadsNet: Historic wherry lifted up out of the water for first time in decades https://t.co/QPIvxaprXh", "truncated": false, "display_text_range": [0, 107], "entities": {"hashtags": [], "symbols": [], "user_mentions": [{"screen_name": "BroadsNet", "name": "BroadsNet", "id": 122444676, "id_str": "122444676", "indices": [3, 13]}], "urls": [{"url": "https://t.co/QPIvxaprXh", "expanded_url": "https://www.edp24.co.uk/news/norfolk-wherry-albion-lifted-8386068", "display_url": "edp24.co.uk/news/norfolk-w\u2026", "indices": [84, 107]}]}, "metadata": {"iso_language_code": "en", "result_type": "recent"}, "source": "<a href=\"https://mobile.twitter.com\" rel=\"nofollow\">Twitter Web App</a>", "in_reply_to_status_id": null, "in_reply_to_status_id_str": null, "in_reply_to_user_id": null, "in_reply_to_user_id_str": null, "in_reply_to_screen_name": null, "user": {"id": 409951751, "id_str": "409951751", "name": "JPCDirect.com", "screen_name": "JPCDirect", "location": "Brundall, Norfolk, England", "description": "East of England main agents for sales, installation, servicing, support and spares for Webasto heating, Isotherm fridges and Sleipner bow thruster systems.", "url": "https://t.co/j66Ez0Jvw6", "entities": {"url": {"urls": [{"url": "https://t.co/j66Ez0Jvw6", "expanded_url": "http://www.jpcdirect.com", "display_url": "jpcdirect.com", "indices": [0, 23]}]}, "description": {"urls": []}}, "protected": false, "followers_count": 300, "friends_count": 446, "listed_count": 4, "created_at": "Fri Nov 11 12:53:49 +0000 2011", "favourites_count": 2618, "utc_offset": null, "time_zone": null, "geo_enabled": true, "verified": false, "statuses_count": 4593, "lang": null, "contributors_enabled": false, "is_translator": false, "is_translation_enabled": false, "profile_background_color": "ACDED6", "profile_background_image_url": "http://abs.twimg.com/images/themes/theme1/bg.png", "profile_background_image_url_https": "https://abs.twimg.com/images/themes/theme1/bg.png", "profile_background_tile": false, "profile_image_url": "http://pbs.twimg.com/profile_images/898475171413209089/Lak1pAhM_normal.jpg", "profile_image_url_https": "https://pbs.twimg.com/profile_images/898475171413209089/Lak1pAhM_normal.jpg", "profile_banner_url": "https://pbs.twimg.com/profile_banners/409951751/1503048610", "profile_link_color": "038543", "profile_sidebar_border_color": "FFFFFF", "profile_sidebar_fill_color": "DDEEF6", "profile_text_color": "333333", "profile_use_background_image": true, "has_extended_profile": false, "default_profile": false, "default_profile_image": false, "following": false, "follow_request_sent": false, "notifications": false, "translator_type": "none", "withheld_in_countries": []}, "geo": null, "coordinates": null, "place": null, "contributors": null, "retweeted_status": {"created_at": "Wed Oct 06 18:20:22 +0000 2021", "id": 1445816216203923460, "id_str": "1445816216203923460", "full_text": "Historic wherry lifted up out of the water for first time in decades https://t.co/QPIvxaprXh", "truncated": false, "display_text_range": [0, 92], "entities": {"hashtags": [], "symbols": [], "user_mentions": [], "urls": [{"url": "https://t.co/QPIvxaprXh", "expanded_url": "https://www.edp24.co.uk/news/norfolk-wherry-albion-lifted-8386068", "display_url": "edp24.co.uk/news/norfolk-w\u2026", "indices": [69, 92]}]}, "metadata": {"iso_language_code": "en", "result_type": "recent"}, "source": "<a href=\"http://twitter.com/download/android\" rel=\"nofollow\">Twitter for Android</a>", "in_reply_to_status_id": null, "in_reply_to_status_id_str": null, "in_reply_to_user_id": null, "in_reply_to_user_id_str": null, "in_reply_to_screen_name": null, "user": {"id": 122444676, "id_str": "122444676", "name": "BroadsNet", "screen_name": "BroadsNet", "location": "Norfolk", "description": "Pete's boating guide to the Norfolk Broads with maps and photographs, covering the rivers, towns and villages that make up the Broads.", "url": "http://t.co/cgGqk69V8U", "entities": {"url": {"urls": [{"url": "http://t.co/cgGqk69V8U", "expanded_url": "http://www.broadsnet.co.uk", "display_url": "broadsnet.co.uk", "indices": [0, 22]}]}, "description": {"urls": []}}, "protected": false, "followers_count": 840, "friends_count": 133, "listed_count": 8, "created_at": "Fri Mar 12 18:45:50 +0000 2010", "favourites_count": 154, "utc_offset": null, "time_zone": null, "geo_enabled": true, "verified": false, "statuses_count": 1195, "lang": null, "contributors_enabled": false, "is_translator": false, "is_translation_enabled": false, "profile_background_color": "C0DEED", "profile_background_image_url": "http://abs.twimg.com/images/themes/theme1/bg.png", "profile_background_image_url_https": "https://abs.twimg.com/images/themes/theme1/bg.png", "profile_background_tile": false, "profile_image_url": "http://pbs.twimg.com/profile_images/3605342264/6f05ebd250377903f2508ed8ca0f7796_normal.png", "profile_image_url_https": "https://pbs.twimg.com/profile_images/3605342264/6f05ebd250377903f2508ed8ca0f7796_normal.png", "profile_link_color": "1DA1F2", "profile_sidebar_border_color": "C0DEED", "profile_sidebar_fill_color": "DDEEF6", "profile_text_color": "333333", "profile_use_background_image": true, "has_extended_profile": false, "default_profile": true, "default_profile_image": false, "following": false, "follow_request_sent": false, "notifications": false, "translator_type": "none", "withheld_in_countries": []}, "geo": null, "coordinates": null, "place": null, "contributors": null, "is_quote_status": false, "retweet_count": 1, "favorite_count": 2, "favorited": false, "retweeted": false, "possibly_sensitive": false, "lang": "en"}, "is_quote_status": false, "retweet_count": 1, "favorite_count": 0, "favorited": false, "retweeted": false, "possibly_sensitive": false, "lang": "en"}
{"created_at": "Thu Oct 07 16:54:55 +0000 2021", "id": 1446157097599709185, "id_str": "1446157097599709185", "full_text": "A burst waterpipe on the A63 in #Hull is causing traffic congestion throughout the city tonight.\n\nDrivers are diverting along nearby streets - causing congestion on Bond Street, George Street, Jarrat Street and Albion Street. Yorkshire Water is on site dealing with the problem. https://t.co/h2rUpmMgcf", "truncated": false, "display_text_range": [0, 278], "entities": {"hashtags": [{"text": "Hull", "indices": [32, 37]}], "symbols": [], "user_mentions": [], "urls": [{"url": "https://t.co/h2rUpmMgcf", "expanded_url": "https://twitter.com/crispinrolfe/status/1446145260409786372", "display_url": "twitter.com/crispinrolfe/s\u2026", "indices": [279, 302]}]}, "metadata": {"iso_language_code": "en", "result_type": "recent"}, "source": "<a href=\"https://mobile.twitter.com\" rel=\"nofollow\">Twitter Web App</a>", "in_reply_to_status_id": null, "in_reply_to_status_id_str": null, "in_reply_to_user_id": null, "in_reply_to_user_id_str": null, "in_reply_to_screen_name": null, "user": {"id": 226297683, "id_str": "226297683", "name": "Natalie Bell", "screen_name": "nbell186", "location": "Hull", "description": "Award-winning campaigning journalist working at BBC Look North, East Yorkshire and Lincolnshire. Got a story? Email me at: natalie.bell@bbc.co.uk", "url": null, "entities": {"description": {"urls": []}}, "protected": false, "followers_count": 1535, "friends_count": 881, "listed_count": 21, "created_at": "Mon Dec 13 20:42:25 +0000 2010", "favourites_count": 1761, "utc_offset": null, "time_zone": null, "geo_enabled": false, "verified": false, "statuses_count": 13964, "lang": null, "contributors_enabled": false, "is_translator": false, "is_translation_enabled": false, "profile_background_color": "709397", "profile_background_image_url": "http://abs.twimg.com/images/themes/theme6/bg.gif", "profile_background_image_url_https": "https://abs.twimg.com/images/themes/theme6/bg.gif", "profile_background_tile": false, "profile_image_url": "http://pbs.twimg.com/profile_images/1147121183172771840/uRyfAiOP_normal.png", "profile_image_url_https": "https://pbs.twimg.com/profile_images/1147121183172771840/uRyfAiOP_normal.png", "profile_banner_url": "https://pbs.twimg.com/profile_banners/226297683/1441709410", "profile_link_color": "FF3300", "profile_sidebar_border_color": "86A4A6", "profile_sidebar_fill_color": "A0C5C7", "profile_text_color": "333333", "profile_use_background_image": true, "has_extended_profile": false, "default_profile": false, "default_profile_image": false, "following": false, "follow_request_sent": false, "notifications": false, "translator_type": "none", "withheld_in_countries": []}, "geo": null, "coordinates": null, "place": null, "contributors": null, "is_quote_status": true, "quoted_status_id": 1446145260409786372, "quoted_status_id_str": "1446145260409786372", "quoted_status": {"created_at": "Thu Oct 07 16:07:52 +0000 2021", "id": 1446145260409786372, "id_str": "1446145260409786372", "full_text": "Not the best time for a burst water main. A63 Castle Street at 5pm with tailbacks and delays of up to an hour from Hedon through Hull westbound. \u2066@looknorthBBC\u2069 \u2066@RadioHumberside\u2069 https://t.co/4g11U7uAlJ", "truncated": false, "display_text_range": [0, 179], "entities": {"hashtags": [], "symbols": [], "user_mentions": [{"screen_name": "looknorthBBC", "name": "BBC East Yorks and Lincs", "id": 273357294, "id_str": "273357294", "indices": [146, 159]}, {"screen_name": "RadioHumberside", "name": "BBC Radio Humberside", "id": 474835281, "id_str": "474835281", "indices": [162, 178]}], "urls": [], "media": [{"id": 1446145155392802819, "id_str": "1446145155392802819", "indices": [180, 203], "media_url": "http://pbs.twimg.com/ext_tw_video_thumb/1446145155392802819/pu/img/yH2HsbU8VptBjkCS.jpg", "media_url_https": "https://pbs.twimg.com/ext_tw_video_thumb/1446145155392802819/pu/img/yH2HsbU8VptBjkCS.jpg", "url": "https://t.co/4g11U7uAlJ", "display_url": "pic.twitter.com/4g11U7uAlJ", "expanded_url": "https://twitter.com/crispinrolfe/status/1446145260409786372/video/1", "type": "photo", "sizes": {"thumb": {"w": 150, "h": 150, "resize": "crop"}, "medium": {"w": 1200, "h": 675, "resize": "fit"}, "small": {"w": 680, "h": 383, "resize": "fit"}, "large": {"w": 1280, "h": 720, "resize": "fit"}}}]}, "extended_entities": {"media": [{"id": 1446145155392802819, "id_str": "1446145155392802819", "indices": [180, 203], "media_url": "http://pbs.twimg.com/ext_tw_video_thumb/1446145155392802819/pu/img/yH2HsbU8VptBjkCS.jpg", "media_url_https": "https://pbs.twimg.com/ext_tw_video_thumb/1446145155392802819/pu/img/yH2HsbU8VptBjkCS.jpg", "url": "https://t.co/4g11U7uAlJ", "display_url": "pic.twitter.com/4g11U7uAlJ", "expanded_url": "https://twitter.com/crispinrolfe/status/1446145260409786372/video/1", "type": "video", "sizes": {"thumb": {"w": 150, "h": 150, "resize": "crop"}, "medium": {"w": 1200, "h": 675, "resize": "fit"}, "small": {"w": 680, "h": 383, "resize": "fit"}, "large": {"w": 1280, "h": 720, "resize": "fit"}}, "video_info": {"aspect_ratio": [16, 9], "duration_millis": 11551, "variants": [{"content_type": "application/x-mpegURL", "url": "https://video.twimg.com/ext_tw_video/1446145155392802819/pu/pl/PoJFOyBRdal_r3up.m3u8?tag=12&container=fmp4"}, {"bitrate": 2176000, "content_type": "video/mp4", "url": "https://video.twimg.com/ext_tw_video/1446145155392802819/pu/vid/1280x720/3RjzxTSBV_H7rIl6.mp4?tag=12"}, {"bitrate": 832000, "content_type": "video/mp4", "url": "https://video.twimg.com/ext_tw_video/1446145155392802819/pu/vid/640x360/JvpvgfEijvj4rmys.mp4?tag=12"}, {"bitrate": 256000, "content_type": "video/mp4", "url": "https://video.twimg.com/ext_tw_video/1446145155392802819/pu/vid/480x270/Vfa4k7q_ZEH8C-6O.mp4?tag=12"}]}, "additional_media_info": {"monetizable": false}}]}, "metadata": {"iso_language_code": "en", "result_type": "recent"}, "source": "<a href=\"http://twitter.com/download/iphone\" rel=\"nofollow\">Twitter for iPhone</a>", "in_reply_to_status_id": null, "in_reply_to_status_id_str": null, "in_reply_to_user_id": null, "in_reply_to_user_id_str": null, "in_reply_to_screen_name": null, "user": {"id": 22118680, "id_str": "22118680", "name": "Crispin Rolfe", "screen_name": "crispinrolfe", "location": "Yorkshire and The Humber, England", "description": "French horn player, BBC filmmaker, family man. All views my own.", "url": "https://t.co/s1i7CNoLlN", "entities": {"url": {"urls": [{"url": "https://t.co/s1i7CNoLlN", "expanded_url": "https://twitter.com/crispinrolfe", "display_url": "twitter.com/crispinrolfe", "indices": [0, 23]}]}, "description": {"urls": []}}, "protected": false, "followers_count": 2431, "friends_count": 3180, "listed_count": 31, "created_at": "Fri Feb 27 07:35:26 +0000 2009", "favourites_count": 946, "utc_offset": null, "time_zone": null, "geo_enabled": false, "verified": false, "statuses_count": 1085, "lang": null, "contributors_enabled": false, "is_translator": false, "is_translation_enabled": false, "profile_background_color": "EDECE9", "profile_background_image_url": "http://abs.twimg.com/images/themes/theme3/bg.gif", "profile_background_image_url_https": "https://abs.twimg.com/images/themes/theme3/bg.gif", "profile_background_tile": false, "profile_image_url": "http://pbs.twimg.com/profile_images/1432803637114417155/cBEIrOJu_normal.jpg", "profile_image_url_https": "https://pbs.twimg.com/profile_images/1432803637114417155/cBEIrOJu_normal.jpg", "profile_banner_url": "https://pbs.twimg.com/profile_banners/22118680/1630441983", "profile_link_color": "088253", "profile_sidebar_border_color": "D3D2CF", "profile_sidebar_fill_color": "E3E2DE", "profile_text_color": "634047", "profile_use_background_image": true, "has_extended_profile": false, "default_profile": false, "default_profile_image": false, "following": false, "follow_request_sent": false, "notifications": false, "translator_type": "none", "withheld_in_countries": []}, "geo": null, "coordinates": null, "place": null, "contributors": null, "is_quote_status": false, "retweet_count": 3, "favorite_count": 0, "favorited": false, "retweeted": false, "possibly_sensitive": false, "lang": "en"}, "retweet_count": 0, "favorite_count": 1, "favorited": false, "retweeted": false, "possibly_sensitive": false, "lang": "en"}
{"created_at": "Thu Oct 07 15:15:06 +0000 2021", "id": 1446131978416361472, "id_str": "1446131978416361472", "full_text": "#NWCNewstream | #Reminder | The NWC is advising that a persisting electrical issue has forced the shutdown of operations at the Easington/ Albion Heights water supply facility. Customers are experiencing no water conditions that will be resolved once the issue has been resolved. https://t.co/gKE4f1rYSK", "truncated": false, "display_text_range": [0, 279], "entities": {"hashtags": [{"text": "NWCNewstream", "indices": [0, 13]}, {"text": "Reminder", "indices": [16, 25]}], "symbols": [], "user_mentions": [], "urls": [], "media": [{"id": 1446131975979298821, "id_str": "1446131975979298821", "indices": [280, 303], "media_url": "http://pbs.twimg.com/media/FBGxXsaUcAUOptp.jpg", "media_url_https": "https://pbs.twimg.com/media/FBGxXsaUcAUOptp.jpg", "url": "https://t.co/gKE4f1rYSK", "display_url": "pic.twitter.com/gKE4f1rYSK", "expanded_url": "https://twitter.com/NWCjam/status/1446131978416361472/photo/1", "type": "photo", "sizes": {"thumb": {"w": 150, "h": 150, "resize": "crop"}, "small": {"w": 680, "h": 680, "resize": "fit"}, "large": {"w": 1080, "h": 1080, "resize": "fit"}, "medium": {"w": 1080, "h": 1080, "resize": "fit"}}}]}, "extended_entities": {"media": [{"id": 1446131975979298821, "id_str": "1446131975979298821", "indices": [280, 303], "media_url": "http://pbs.twimg.com/media/FBGxXsaUcAUOptp.jpg", "media_url_https": "https://pbs.twimg.com/media/FBGxXsaUcAUOptp.jpg", "url": "https://t.co/gKE4f1rYSK", "display_url": "pic.twitter.com/gKE4f1rYSK", "expanded_url": "https://twitter.com/NWCjam/status/1446131978416361472/photo/1", "type": "photo", "sizes": {"thumb": {"w": 150, "h": 150, "resize": "crop"}, "small": {"w": 680, "h": 680, "resize": "fit"}, "large": {"w": 1080, "h": 1080, "resize": "fit"}, "medium": {"w": 1080, "h": 1080, "resize": "fit"}}}, {"id": 1446131974553448449, "id_str": "1446131974553448449", "indices": [280, 303], "media_url": "http://pbs.twimg.com/media/FBGxXnGXsAEImwY.jpg", "media_url_https": "https://pbs.twimg.com/media/FBGxXnGXsAEImwY.jpg", "url": "https://t.co/gKE4f1rYSK", "display_url": "pic.twitter.com/gKE4f1rYSK", "expanded_url": "https://twitter.com/NWCjam/status/1446131978416361472/photo/1", "type": "photo", "sizes": {"thumb": {"w": 150, "h": 150, "resize": "crop"}, "large": {"w": 437, "h": 336, "resize": "fit"}, "small": {"w": 437, "h": 336, "resize": "fit"}, "medium": {"w": 437, "h": 336, "resize": "fit"}}}]}, "metadata": {"iso_language_code": "en", "result_type": "recent"}, "source": "<a href=\"https://www.hootsuite.com\" rel=\"nofollow\">Hootsuite Inc.</a>", "in_reply_to_status_id": null, "in_reply_to_status_id_str": null, "in_reply_to_user_id": null, "in_reply_to_user_id_str": null, "in_reply_to_screen_name": null, "user": {"id": 213725020, "id_str": "213725020", "name": "NWC Jamaica", "screen_name": "NWCjam", "location": "Jamaica", "description": "Take the hassle out of your NWC water bill payment! Skip the line and have your account updated immediately with #NWCIPAY \nhttps://t.co/8y2KxhKbar", "url": "https://t.co/LvYckX9ocG", "entities": {"url": {"urls": [{"url": "https://t.co/LvYckX9ocG", "expanded_url": "https://www.nwcjamaica.com", "display_url": "nwcjamaica.com", "indices": [0, 23]}]}, "description": {"urls": [{"url": "https://t.co/8y2KxhKbar", "expanded_url": "https://ipay.nwcjamaica.com/", "display_url": "ipay.nwcjamaica.com", "indices": [123, 146]}]}}, "protected": false, "followers_count": 14169, "friends_count": 562, "listed_count": 55, "created_at": "Tue Nov 09 16:55:36 +0000 2010", "favourites_count": 6280, "utc_offset": null, "time_zone": null, "geo_enabled": false, "verified": false, "statuses_count": 22381, "lang": null, "contributors_enabled": false, "is_translator": false, "is_translation_enabled": false, "profile_background_color": "000000", "profile_background_image_url": "http://abs.twimg.com/images/themes/theme1/bg.png", "profile_background_image_url_https": "https://abs.twimg.com/images/themes/theme1/bg.png", "profile_background_tile": false, "profile_image_url": "http://pbs.twimg.com/profile_images/1444403348321472514/91bC16Gj_normal.jpg", "profile_image_url_https": "https://pbs.twimg.com/profile_images/1444403348321472514/91bC16Gj_normal.jpg", "profile_banner_url": "https://pbs.twimg.com/profile_banners/213725020/1628803771", "profile_link_color": "89C9FA", "profile_sidebar_border_color": "000000", "profile_sidebar_fill_color": "000000", "profile_text_color": "000000", "profile_use_background_image": false, "has_extended_profile": false, "default_profile": false, "default_profile_image": false, "following": false, "follow_request_sent": false, "notifications": false, "translator_type": "none", "withheld_in_countries": []}, "geo": null, "coordinates": null, "place": null, "contributors": null, "is_quote_status": false, "retweet_count": 0, "favorite_count": 1, "favorited": false, "retweeted": false, "possibly_sensitive": false, "lang": "en"}
{"created_at": "Wed Oct 06 18:20:22 +0000 2021", "id": 1445816216203923460, "id_str": "1445816216203923460", "full_text": "Historic wherry lifted up out of the water for first time in decades https://t.co/QPIvxaprXh", "truncated": false, "display_text_range": [0, 92], "entities": {"hashtags": [], "symbols": [], "user_mentions": [], "urls": [{"url": "https://t.co/QPIvxaprXh", "expanded_url": "https://www.edp24.co.uk/news/norfolk-wherry-albion-lifted-8386068", "display_url": "edp24.co.uk/news/norfolk-w\u2026", "indices": [69, 92]}]}, "metadata": {"iso_language_code": "en", "result_type": "recent"}, "source": "<a href=\"http://twitter.com/download/android\" rel=\"nofollow\">Twitter for Android</a>", "in_reply_to_status_id": null, "in_reply_to_status_id_str": null, "in_reply_to_user_id": null, "in_reply_to_user_id_str": null, "in_reply_to_screen_name": null, "user": {"id": 122444676, "id_str": "122444676", "name": "BroadsNet", "screen_name": "BroadsNet", "location": "Norfolk", "description": "Pete's boating guide to the Norfolk Broads with maps and photographs, covering the rivers, towns and villages that make up the Broads.", "url": "http://t.co/cgGqk69V8U", "entities": {"url": {"urls": [{"url": "http://t.co/cgGqk69V8U", "expanded_url": "http://www.broadsnet.co.uk", "display_url": "broadsnet.co.uk", "indices": [0, 22]}]}, "description": {"urls": []}}, "protected": false, "followers_count": 840, "friends_count": 133, "listed_count": 8, "created_at": "Fri Mar 12 18:45:50 +0000 2010", "favourites_count": 154, "utc_offset": null, "time_zone": null, "geo_enabled": true, "verified": false, "statuses_count": 1195, "lang": null, "contributors_enabled": false, "is_translator": false, "is_translation_enabled": false, "profile_background_color": "C0DEED", "profile_background_image_url": "http://abs.twimg.com/images/themes/theme1/bg.png", "profile_background_image_url_https": "https://abs.twimg.com/images/themes/theme1/bg.png", "profile_background_tile": false, "profile_image_url": "http://pbs.twimg.com/profile_images/3605342264/6f05ebd250377903f2508ed8ca0f7796_normal.png", "profile_image_url_https": "https://pbs.twimg.com/profile_images/3605342264/6f05ebd250377903f2508ed8ca0f7796_normal.png", "profile_link_color": "1DA1F2", "profile_sidebar_border_color": "C0DEED", "profile_sidebar_fill_color": "DDEEF6", "profile_text_color": "333333", "profile_use_background_image": true, "has_extended_profile": false, "default_profile": true, "default_profile_image": false, "following": false, "follow_request_sent": false, "notifications": false, "translator_type": "none", "withheld_in_countries": []}, "geo": null, "coordinates": null, "place": null, "contributors": null, "is_quote_status": false, "retweet_count": 1, "favorite_count": 2, "favorited": false, "retweeted": false, "possibly_sensitive": false, "lang": "en"}
{"created_at": "Wed Oct 06 17:06:52 +0000 2021", "id": 1445797719105228808, "id_str": "1445797719105228808", "full_text": "#NWCNewstream | The NWC is advising that a persisting electrical issue has forced the shutdown of operations at the Easington/ Albion Heights water supply facility.  Customers are experiencing no water conditions that will be resolved once the issue has been resolved. https://t.co/3eaQzfuIw1", "truncated": false, "display_text_range": [0, 268], "entities": {"hashtags": [{"text": "NWCNewstream", "indices": [0, 13]}], "symbols": [], "user_mentions": [], "urls": [], "media": [{"id": 1445797717800890370, "id_str": "1445797717800890370", "indices": [269, 292], "media_url": "http://pbs.twimg.com/media/FBCBXTqXsAIwuYA.jpg", "media_url_https": "https://pbs.twimg.com/media/FBCBXTqXsAIwuYA.jpg", "url": "https://t.co/3eaQzfuIw1", "display_url": "pic.twitter.com/3eaQzfuIw1", "expanded_url": "https://twitter.com/NWCjam/status/1445797719105228808/photo/1", "type": "photo", "sizes": {"thumb": {"w": 150, "h": 150, "resize": "crop"}, "small": {"w": 680, "h": 680, "resize": "fit"}, "large": {"w": 1080, "h": 1080, "resize": "fit"}, "medium": {"w": 1080, "h": 1080, "resize": "fit"}}}]}, "extended_entities": {"media": [{"id": 1445797717800890370, "id_str": "1445797717800890370", "indices": [269, 292], "media_url": "http://pbs.twimg.com/media/FBCBXTqXsAIwuYA.jpg", "media_url_https": "https://pbs.twimg.com/media/FBCBXTqXsAIwuYA.jpg", "url": "https://t.co/3eaQzfuIw1", "display_url": "pic.twitter.com/3eaQzfuIw1", "expanded_url": "https://twitter.com/NWCjam/status/1445797719105228808/photo/1", "type": "photo", "sizes": {"thumb": {"w": 150, "h": 150, "resize": "crop"}, "small": {"w": 680, "h": 680, "resize": "fit"}, "large": {"w": 1080, "h": 1080, "resize": "fit"}, "medium": {"w": 1080, "h": 1080, "resize": "fit"}}}, {"id": 1445797718094450688, "id_str": "1445797718094450688", "indices": [269, 292], "media_url": "http://pbs.twimg.com/media/FBCBXUwXEAA0xQd.jpg", "media_url_https": "https://pbs.twimg.com/media/FBCBXUwXEAA0xQd.jpg", "url": "https://t.co/3eaQzfuIw1", "display_url": "pic.twitter.com/3eaQzfuIw1", "expanded_url": "https://twitter.com/NWCjam/status/1445797719105228808/photo/1", "type": "photo", "sizes": {"thumb": {"w": 150, "h": 150, "resize": "crop"}, "large": {"w": 437, "h": 336, "resize": "fit"}, "small": {"w": 437, "h": 336, "resize": "fit"}, "medium": {"w": 437, "h": 336, "resize": "fit"}}}]}, "metadata": {"iso_language_code": "en", "result_type": "recent"}, "source": "<a href=\"https://www.hootsuite.com\" rel=\"nofollow\">Hootsuite Inc.</a>", "in_reply_to_status_id": null, "in_reply_to_status_id_str": null, "in_reply_to_user_id": null, "in_reply_to_user_id_str": null, "in_reply_to_screen_name": null, "user": {"id": 213725020, "id_str": "213725020", "name": "NWC Jamaica", "screen_name": "NWCjam", "location": "Jamaica", "description": "Take the hassle out of your NWC water bill payment! Skip the line and have your account updated immediately with #NWCIPAY \nhttps://t.co/8y2KxhKbar", "url": "https://t.co/LvYckX9ocG", "entities": {"url": {"urls": [{"url": "https://t.co/LvYckX9ocG", "expanded_url": "https://www.nwcjamaica.com", "display_url": "nwcjamaica.com", "indices": [0, 23]}]}, "description": {"urls": [{"url": "https://t.co/8y2KxhKbar", "expanded_url": "https://ipay.nwcjamaica.com/", "display_url": "ipay.nwcjamaica.com", "indices": [123, 146]}]}}, "protected": false, "followers_count": 14169, "friends_count": 562, "listed_count": 55, "created_at": "Tue Nov 09 16:55:36 +0000 2010", "favourites_count": 6280, "utc_offset": null, "time_zone": null, "geo_enabled": false, "verified": false, "statuses_count": 22381, "lang": null, "contributors_enabled": false, "is_translator": false, "is_translation_enabled": false, "profile_background_color": "000000", "profile_background_image_url": "http://abs.twimg.com/images/themes/theme1/bg.png", "profile_background_image_url_https": "https://abs.twimg.com/images/themes/theme1/bg.png", "profile_background_tile": false, "profile_image_url": "http://pbs.twimg.com/profile_images/1444403348321472514/91bC16Gj_normal.jpg", "profile_image_url_https": "https://pbs.twimg.com/profile_images/1444403348321472514/91bC16Gj_normal.jpg", "profile_banner_url": "https://pbs.twimg.com/profile_banners/213725020/1628803771", "profile_link_color": "89C9FA", "profile_sidebar_border_color": "000000", "profile_sidebar_fill_color": "000000", "profile_text_color": "000000", "profile_use_background_image": false, "has_extended_profile": false, "default_profile": false, "default_profile_image": false, "following": false, "follow_request_sent": false, "notifications": false, "translator_type": "none", "withheld_in_countries": []}, "geo": null, "coordinates": null, "place": null, "contributors": null, "is_quote_status": false, "retweet_count": 0, "favorite_count": 1, "favorited": false, "retweeted": false, "possibly_sensitive": false, "lang": "en"}
