{"created_at": "Mon Oct 04 20:27:44 +0000 2021", "id": 1445123492853260289, "id_str": "1445123492853260289", "full_text": "Hengistbury West, Bournemouth - Pollution Alert Check the real-time water quality data at your beach https://t.co/aaRxTDGNPe.", "truncated": false, "display_text_range": [0, 125], "entities": {"hashtags": [], "symbols": [], "user_mentions": [], "urls": [{"url": "https://t.co/aaRxTDGNPe", "expanded_url": "https://www.sas.org.uk/safer-seas-service/", "display_url": "sas.org.uk/safer-seas-ser\u2026", "indices": [101, 124]}]}, "metadata": {"iso_language_code": "en", "result_type": "recent"}, "source": "<a href=\"http://twitter.com/download/android\" rel=\"nofollow\">Twitter for Android</a>", "in_reply_to_status_id": null, "in_reply_to_status_id_str": null, "in_reply_to_user_id": null, "in_reply_to_user_id_str": null, "in_reply_to_screen_name": null, "user": {"id": 1107537692, "id_str": "1107537692", "name": "KeepWaterbeachRural\ud83c\udf43\ud83d\udc9a\ud83c\udf43\ud83c\udf0d\ud83d\udc9a\ud83d\udc99", "screen_name": "Jane45665825", "location": "", "description": "", "url": null, "entities": {"description": {"urls": []}}, "protected": false, "followers_count": 288, "friends_count": 538, "listed_count": 2, "created_at": "Sun Jan 20 23:13:05 +0000 2013", "favourites_count": 4280, "utc_offset": null, "time_zone": null, "geo_enabled": true, "verified": false, "statuses_count": 4962, "lang": null, "contributors_enabled": false, "is_translator": false, "is_translation_enabled": false, "profile_background_color": "C0DEED", "profile_background_image_url": "http://abs.twimg.com/images/themes/theme1/bg.png", "profile_background_image_url_https": "https://abs.twimg.com/images/themes/theme1/bg.png", "profile_background_tile": false, "profile_image_url": "http://pbs.twimg.com/profile_images/1378050367150305283/kkS73xOV_normal.jpg", "profile_image_url_https": "https://pbs.twimg.com/profile_images/1378050367150305283/kkS73xOV_normal.jpg", "profile_banner_url": "https://pbs.twimg.com/profile_banners/1107537692/1616604713", "profile_link_color": "1DA1F2", "profile_sidebar_border_color": "C0DEED", "profile_sidebar_fill_color": "DDEEF6", "profile_text_color": "333333", "profile_use_background_image": true, "has_extended_profile": false, "default_profile": true, "default_profile_image": false, "following": false, "follow_request_sent": false, "notifications": false, "translator_type": "none", "withheld_in_countries": []}, "geo": null, "coordinates": null, "place": null, "contributors": null, "is_quote_status": false, "retweet_count": 0, "favorite_count": 0, "favorited": false, "retweeted": false, "possibly_sensitive": false, "lang": "en"}
{"created_at": "Mon Oct 04 20:27:24 +0000 2021", "id": 1445123409298472968, "id_str": "1445123409298472968", "full_text": "Bournemouth Pier - Pollution Alert Check the real-time water quality data at your beach https://t.co/aaRxTDGNPe.", "truncated": false, "display_text_range": [0, 112], "entities": {"hashtags": [], "symbols": [], "user_mentions": [], "urls": [{"url": "https://t.co/aaRxTDGNPe", "expanded_url": "https://www.sas.org.uk/safer-seas-service/", "display_url": "sas.org.uk/safer-seas-ser\u2026", "indices": [88, 111]}]}, "metadata": {"iso_language_code": "en", "result_type": "recent"}, "source": "<a href=\"http://twitter.com/download/android\" rel=\"nofollow\">Twitter for Android</a>", "in_reply_to_status_id": null, "in_reply_to_status_id_str": null, "in_reply_to_user_id": null, "in_reply_to_user_id_str": null, "in_reply_to_screen_name": null, "user": {"id": 1107537692, "id_str": "1107537692", "name": "KeepWaterbeachRural\ud83c\udf43\ud83d\udc9a\ud83c\udf43\ud83c\udf0d\ud83d\udc9a\ud83d\udc99", "screen_name": "Jane45665825", "location": "", "description": "", "url": null, "entities": {"description": {"urls": []}}, "protected": false, "followers_count": 288, "friends_count": 538, "listed_count": 2, "created_at": "Sun Jan 20 23:13:05 +0000 2013", "favourites_count": 4280, "utc_offset": null, "time_zone": null, "geo_enabled": true, "verified": false, "statuses_count": 4962, "lang": null, "contributors_enabled": false, "is_translator": false, "is_translation_enabled": false, "profile_background_color": "C0DEED", "profile_background_image_url": "http://abs.twimg.com/images/themes/theme1/bg.png", "profile_background_image_url_https": "https://abs.twimg.com/images/themes/theme1/bg.png", "profile_background_tile": false, "profile_image_url": "http://pbs.twimg.com/profile_images/1378050367150305283/kkS73xOV_normal.jpg", "profile_image_url_https": "https://pbs.twimg.com/profile_images/1378050367150305283/kkS73xOV_normal.jpg", "profile_banner_url": "https://pbs.twimg.com/profile_banners/1107537692/1616604713", "profile_link_color": "1DA1F2", "profile_sidebar_border_color": "C0DEED", "profile_sidebar_fill_color": "DDEEF6", "profile_text_color": "333333", "profile_use_background_image": true, "has_extended_profile": false, "default_profile": true, "default_profile_image": false, "following": false, "follow_request_sent": false, "notifications": false, "translator_type": "none", "withheld_in_countries": []}, "geo": null, "coordinates": null, "place": null, "contributors": null, "is_quote_status": false, "retweet_count": 0, "favorite_count": 0, "favorited": false, "retweeted": false, "possibly_sensitive": false, "lang": "en"}
{"created_at": "Mon Oct 04 17:28:22 +0000 2021", "id": 1445078355108319245, "id_str": "1445078355108319245", "full_text": "This story weather is perfect for water sports like kite surfing!\nIf you're feeling adventurous, check out the many local schools while you're staying with us!\n#mondaythoughts #autumn #Bournemouth https://t.co/x0CbjN6Hm0", "truncated": false, "display_text_range": [0, 196], "entities": {"hashtags": [{"text": "mondaythoughts", "indices": [160, 175]}, {"text": "autumn", "indices": [176, 183]}, {"text": "Bournemouth", "indices": [184, 196]}], "symbols": [], "user_mentions": [], "urls": [], "media": [{"id": 1445078194835664902, "id_str": "1445078194835664902", "indices": [197, 220], "media_url": "http://pbs.twimg.com/media/FA3y9jvXsAYosTd.jpg", "media_url_https": "https://pbs.twimg.com/media/FA3y9jvXsAYosTd.jpg", "url": "https://t.co/x0CbjN6Hm0", "display_url": "pic.twitter.com/x0CbjN6Hm0", "expanded_url": "https://twitter.com/ElsteadHotel/status/1445078355108319245/photo/1", "type": "photo", "sizes": {"thumb": {"w": 150, "h": 150, "resize": "crop"}, "small": {"w": 680, "h": 516, "resize": "fit"}, "medium": {"w": 1200, "h": 911, "resize": "fit"}, "large": {"w": 2048, "h": 1554, "resize": "fit"}}}]}, "extended_entities": {"media": [{"id": 1445078194835664902, "id_str": "1445078194835664902", "indices": [197, 220], "media_url": "http://pbs.twimg.com/media/FA3y9jvXsAYosTd.jpg", "media_url_https": "https://pbs.twimg.com/media/FA3y9jvXsAYosTd.jpg", "url": "https://t.co/x0CbjN6Hm0", "display_url": "pic.twitter.com/x0CbjN6Hm0", "expanded_url": "https://twitter.com/ElsteadHotel/status/1445078355108319245/photo/1", "type": "photo", "sizes": {"thumb": {"w": 150, "h": 150, "resize": "crop"}, "small": {"w": 680, "h": 516, "resize": "fit"}, "medium": {"w": 1200, "h": 911, "resize": "fit"}, "large": {"w": 2048, "h": 1554, "resize": "fit"}}}]}, "metadata": {"iso_language_code": "en", "result_type": "recent"}, "source": "<a href=\"http://twitter.com/download/android\" rel=\"nofollow\">Twitter for Android</a>", "in_reply_to_status_id": null, "in_reply_to_status_id_str": null, "in_reply_to_user_id": null, "in_reply_to_user_id_str": null, "in_reply_to_screen_name": null, "user": {"id": 24896603, "id_str": "24896603", "name": "The Elstead Hotel", "screen_name": "ElsteadHotel", "location": "Bournemouth, England", "description": "Our staff will give you the warmest welcome in Bournemouth! A short walk from the beach, train station & town centre. Pool, gym WIFI & parking. 01202 293071", "url": "https://t.co/ORth2Gp6a5", "entities": {"url": {"urls": [{"url": "https://t.co/ORth2Gp6a5", "expanded_url": "http://www.the-elstead.co.uk", "display_url": "the-elstead.co.uk", "indices": [0, 23]}]}, "description": {"urls": []}}, "protected": false, "followers_count": 237, "friends_count": 346, "listed_count": 6, "created_at": "Tue Mar 17 15:19:45 +0000 2009", "favourites_count": 1363, "utc_offset": null, "time_zone": null, "geo_enabled": false, "verified": false, "statuses_count": 1131, "lang": null, "contributors_enabled": false, "is_translator": false, "is_translation_enabled": false, "profile_background_color": "E1D9C0", "profile_background_image_url": "http://abs.twimg.com/images/themes/theme1/bg.png", "profile_background_image_url_https": "https://abs.twimg.com/images/themes/theme1/bg.png", "profile_background_tile": true, "profile_image_url": "http://pbs.twimg.com/profile_images/2626452975/0ewgddzihpsjy6qm64i4_normal.jpeg", "profile_image_url_https": "https://pbs.twimg.com/profile_images/2626452975/0ewgddzihpsjy6qm64i4_normal.jpeg", "profile_banner_url": "https://pbs.twimg.com/profile_banners/24896603/1616842405", "profile_link_color": "E81C4F", "profile_sidebar_border_color": "FFFFFF", "profile_sidebar_fill_color": "BA7286", "profile_text_color": "AAA8B3", "profile_use_background_image": true, "has_extended_profile": false, "default_profile": false, "default_profile_image": false, "following": false, "follow_request_sent": false, "notifications": false, "translator_type": "none", "withheld_in_countries": []}, "geo": null, "coordinates": null, "place": null, "contributors": null, "is_quote_status": false, "retweet_count": 0, "favorite_count": 0, "favorited": false, "retweeted": false, "possibly_sensitive": false, "lang": "en"}
{"created_at": "Mon Oct 04 08:41:03 +0000 2021", "id": 1444945651188523010, "id_str": "1444945651188523010", "full_text": "\ud83d\udeb0Water works by Essex &amp; Suffolk Water outside 64 Bournemouth Park Rd, between 2 and 7 October - \ud835\udde7\ud835\uddff\ud835\uddee\ud835\uddf3\ud835\uddf3\ud835\uddf6\ud835\uddf0 \ud835\uddf0\ud835\uddfc\ud835\uddfb\ud835\ude01\ud835\uddff\ud835\uddfc\ud835\uddf9 (\ud835\ude01\ud835\ude04\ud835\uddfc-\ud835\ude04\ud835\uddee\ud835\ude06 \ud835\ude00\ud835\uddf6\ud835\uddf4\ud835\uddfb\ud835\uddee\ud835\uddf9\ud835\ude00) \ud835\uddf1\ud835\uddf2\ud835\uddf9\ud835\uddee\ud835\ude06\ud835\ude00 \ud835\uddf9\ud835\uddf6\ud835\uddf8\ud835\uddf2\ud835\uddf9\ud835\ude06.", "truncated": false, "display_text_range": [0, 148], "entities": {"hashtags": [], "symbols": [], "user_mentions": [], "urls": []}, "metadata": {"iso_language_code": "en", "result_type": "recent"}, "source": "<a href=\"https://mobile.twitter.com\" rel=\"nofollow\">Twitter Web App</a>", "in_reply_to_status_id": 1444945649401798656, "in_reply_to_status_id_str": "1444945649401798656", "in_reply_to_user_id": 919281909687115777, "in_reply_to_user_id_str": "919281909687115777", "in_reply_to_screen_name": "CllrDent", "user": {"id": 919281909687115777, "id_str": "919281909687115777", "name": "Cllr Matt Dent", "screen_name": "CllrDent", "location": "Southend-on-Sea", "description": "Labour councillor for Kursaal ward, Southend-on-Sea. Never knowingly on message. All views my own.\n\ncllrdent@southend.gov.uk/01702 212372", "url": null, "entities": {"description": {"urls": []}}, "protected": false, "followers_count": 1415, "friends_count": 1017, "listed_count": 10, "created_at": "Sat Oct 14 19:21:01 +0000 2017", "favourites_count": 2819, "utc_offset": null, "time_zone": null, "geo_enabled": true, "verified": true, "statuses_count": 13548, "lang": null, "contributors_enabled": false, "is_translator": false, "is_translation_enabled": false, "profile_background_color": "000000", "profile_background_image_url": "http://abs.twimg.com/images/themes/theme1/bg.png", "profile_background_image_url_https": "https://abs.twimg.com/images/themes/theme1/bg.png", "profile_background_tile": false, "profile_image_url": "http://pbs.twimg.com/profile_images/1345733021400494081/aB4YhXwy_normal.png", "profile_image_url_https": "https://pbs.twimg.com/profile_images/1345733021400494081/aB4YhXwy_normal.png", "profile_banner_url": "https://pbs.twimg.com/profile_banners/919281909687115777/1589360180", "profile_link_color": "E81C4F", "profile_sidebar_border_color": "000000", "profile_sidebar_fill_color": "000000", "profile_text_color": "000000", "profile_use_background_image": false, "has_extended_profile": true, "default_profile": false, "default_profile_image": false, "following": false, "follow_request_sent": false, "notifications": false, "translator_type": "none", "withheld_in_countries": []}, "geo": null, "coordinates": null, "place": null, "contributors": null, "is_quote_status": false, "retweet_count": 0, "favorite_count": 0, "favorited": false, "retweeted": false, "lang": "en"}
{"created_at": "Mon Oct 04 08:31:01 +0000 2021", "id": 1444943125600952321, "id_str": "1444943125600952321", "full_text": "Last Friday, Jason Harvey (Network &amp; Customer Services Manager) chatted with Pinhoe WI about the work we do to ensure there\u2019s a continuous and safe supply of drinking water and waste management to customers in the South West and Bournemouth.\n\nThanks for having us! \ud83d\udde3\ufe0f\ud83d\udcad https://t.co/tA6nSKlEw2", "truncated": false, "display_text_range": [0, 272], "entities": {"hashtags": [], "symbols": [], "user_mentions": [], "urls": [], "media": [{"id": 1444943121654206466, "id_str": "1444943121654206466", "indices": [273, 296], "media_url": "http://pbs.twimg.com/media/FA14HQ7X0AIZWKk.jpg", "media_url_https": "https://pbs.twimg.com/media/FA14HQ7X0AIZWKk.jpg", "url": "https://t.co/tA6nSKlEw2", "display_url": "pic.twitter.com/tA6nSKlEw2", "expanded_url": "https://twitter.com/SouthWestWater/status/1444943125600952321/photo/1", "type": "photo", "sizes": {"small": {"w": 510, "h": 680, "resize": "fit"}, "large": {"w": 1536, "h": 2048, "resize": "fit"}, "thumb": {"w": 150, "h": 150, "resize": "crop"}, "medium": {"w": 900, "h": 1200, "resize": "fit"}}}]}, "extended_entities": {"media": [{"id": 1444943121654206466, "id_str": "1444943121654206466", "indices": [273, 296], "media_url": "http://pbs.twimg.com/media/FA14HQ7X0AIZWKk.jpg", "media_url_https": "https://pbs.twimg.com/media/FA14HQ7X0AIZWKk.jpg", "url": "https://t.co/tA6nSKlEw2", "display_url": "pic.twitter.com/tA6nSKlEw2", "expanded_url": "https://twitter.com/SouthWestWater/status/1444943125600952321/photo/1", "type": "photo", "sizes": {"small": {"w": 510, "h": 680, "resize": "fit"}, "large": {"w": 1536, "h": 2048, "resize": "fit"}, "thumb": {"w": 150, "h": 150, "resize": "crop"}, "medium": {"w": 900, "h": 1200, "resize": "fit"}}}]}, "metadata": {"iso_language_code": "en", "result_type": "recent"}, "source": "<a href=\"https://www.hootsuite.com\" rel=\"nofollow\">Hootsuite Inc.</a>", "in_reply_to_status_id": null, "in_reply_to_status_id_str": null, "in_reply_to_user_id": null, "in_reply_to_user_id_str": null, "in_reply_to_screen_name": null, "user": {"id": 402735312, "id_str": "402735312", "name": "South West Water", "screen_name": "SouthWestWater", "location": "Exeter", "description": "Part of the FTSE 250 @PennonGroup. \n\nFor customer care @SWWHelp \ud83d\udc69\u200d\ud83d\udcbb\ud83d\udcde. \n\nFind out how we manage your water and wastewater services #GetIntoWater \ud83d\udca6\ud83d\udebd", "url": "http://t.co/wAyfzMsW2q", "entities": {"url": {"urls": [{"url": "http://t.co/wAyfzMsW2q", "expanded_url": "http://www.southwestwater.co.uk", "display_url": "southwestwater.co.uk", "indices": [0, 22]}]}, "description": {"urls": []}}, "protected": false, "followers_count": 12173, "friends_count": 2241, "listed_count": 155, "created_at": "Tue Nov 01 14:10:08 +0000 2011", "favourites_count": 2244, "utc_offset": null, "time_zone": null, "geo_enabled": true, "verified": false, "statuses_count": 19268, "lang": null, "contributors_enabled": false, "is_translator": false, "is_translation_enabled": false, "profile_background_color": "131516", "profile_background_image_url": "http://abs.twimg.com/images/themes/theme14/bg.gif", "profile_background_image_url_https": "https://abs.twimg.com/images/themes/theme14/bg.gif", "profile_background_tile": false, "profile_image_url": "http://pbs.twimg.com/profile_images/912983968017997824/PAFocXt2_normal.jpg", "profile_image_url_https": "https://pbs.twimg.com/profile_images/912983968017997824/PAFocXt2_normal.jpg", "profile_banner_url": "https://pbs.twimg.com/profile_banners/402735312/1584609647", "profile_link_color": "009999", "profile_sidebar_border_color": "FFFFFF", "profile_sidebar_fill_color": "EFEFEF", "profile_text_color": "333333", "profile_use_background_image": true, "has_extended_profile": false, "default_profile": false, "default_profile_image": false, "following": false, "follow_request_sent": false, "notifications": false, "translator_type": "none", "withheld_in_countries": []}, "geo": null, "coordinates": null, "place": null, "contributors": null, "is_quote_status": false, "retweet_count": 0, "favorite_count": 2, "favorited": false, "retweeted": false, "possibly_sensitive": false, "lang": "en"}
{"created_at": "Mon Oct 04 06:00:01 +0000 2021", "id": 1444905124988608518, "id_str": "1444905124988608518", "full_text": "Treat yourself to some last-minute Run Bournemouth goodies. \n\nWe've got running belts, foldable water bottles, lock laces and much, much more. \n\nToday is the last day to order to guarantee delivery for event weekend - order now before it's too late! \n\nhttps://t.co/Gr3a9KmMs8 https://t.co/YKKgjXYTKT", "truncated": false, "display_text_range": [0, 275], "entities": {"hashtags": [], "symbols": [], "user_mentions": [], "urls": [{"url": "https://t.co/Gr3a9KmMs8", "expanded_url": "https://www.runbournemouth.com/shop", "display_url": "runbournemouth.com/shop", "indices": [252, 275]}], "media": [{"id": 1443949776387588122, "id_str": "1443949776387588122", "indices": [276, 299], "media_url": "http://pbs.twimg.com/media/FAnwq9cWQBoJqAt.jpg", "media_url_https": "https://pbs.twimg.com/media/FAnwq9cWQBoJqAt.jpg", "url": "https://t.co/YKKgjXYTKT", "display_url": "pic.twitter.com/YKKgjXYTKT", "expanded_url": "https://twitter.com/RunBournemouth/status/1444905124988608518/photo/1", "type": "photo", "sizes": {"medium": {"w": 1080, "h": 1080, "resize": "fit"}, "thumb": {"w": 150, "h": 150, "resize": "crop"}, "small": {"w": 680, "h": 680, "resize": "fit"}, "large": {"w": 1080, "h": 1080, "resize": "fit"}}}]}, "extended_entities": {"media": [{"id": 1443949776387588122, "id_str": "1443949776387588122", "indices": [276, 299], "media_url": "http://pbs.twimg.com/media/FAnwq9cWQBoJqAt.jpg", "media_url_https": "https://pbs.twimg.com/media/FAnwq9cWQBoJqAt.jpg", "url": "https://t.co/YKKgjXYTKT", "display_url": "pic.twitter.com/YKKgjXYTKT", "expanded_url": "https://twitter.com/RunBournemouth/status/1444905124988608518/photo/1", "type": "photo", "sizes": {"medium": {"w": 1080, "h": 1080, "resize": "fit"}, "thumb": {"w": 150, "h": 150, "resize": "crop"}, "small": {"w": 680, "h": 680, "resize": "fit"}, "large": {"w": 1080, "h": 1080, "resize": "fit"}}}]}, "metadata": {"iso_language_code": "en", "result_type": "recent"}, "source": "<a href=\"https://about.twitter.com/products/tweetdeck\" rel=\"nofollow\">TweetDeck</a>", "in_reply_to_status_id": null, "in_reply_to_status_id_str": null, "in_reply_to_user_id": null, "in_reply_to_user_id_str": null, "in_reply_to_screen_name": null, "user": {"id": 1670063186, "id_str": "1670063186", "name": "Run Bournemouth \ud83c\udf0a", "screen_name": "RunBournemouth", "location": "Bournemouth", "description": "Running as it should be. Run Bournemouth takes place on 9/10 Oct 2021 - come and be a part of it! #runbournemouth https://t.co/JG1a3LJ8Bk", "url": "https://t.co/CbcWYHoRXa", "entities": {"url": {"urls": [{"url": "https://t.co/CbcWYHoRXa", "expanded_url": "https://www.runbournemouth.com", "display_url": "runbournemouth.com", "indices": [0, 23]}]}, "description": {"urls": [{"url": "https://t.co/JG1a3LJ8Bk", "expanded_url": "http://runbournemouth.com", "display_url": "runbournemouth.com", "indices": [114, 137]}]}}, "protected": false, "followers_count": 5314, "friends_count": 882, "listed_count": 51, "created_at": "Wed Aug 14 09:39:22 +0000 2013", "favourites_count": 5331, "utc_offset": null, "time_zone": null, "geo_enabled": true, "verified": true, "statuses_count": 2952, "lang": null, "contributors_enabled": false, "is_translator": false, "is_translation_enabled": false, "profile_background_color": "000000", "profile_background_image_url": "http://abs.twimg.com/images/themes/theme1/bg.png", "profile_background_image_url_https": "https://abs.twimg.com/images/themes/theme1/bg.png", "profile_background_tile": false, "profile_image_url": "http://pbs.twimg.com/profile_images/1181164829240893441/mfQYw9CW_normal.jpg", "profile_image_url_https": "https://pbs.twimg.com/profile_images/1181164829240893441/mfQYw9CW_normal.jpg", "profile_banner_url": "https://pbs.twimg.com/profile_banners/1670063186/1570703638", "profile_link_color": "7D0063", "profile_sidebar_border_color": "000000", "profile_sidebar_fill_color": "000000", "profile_text_color": "000000", "profile_use_background_image": false, "has_extended_profile": false, "default_profile": false, "default_profile_image": false, "following": false, "follow_request_sent": false, "notifications": false, "translator_type": "none", "withheld_in_countries": []}, "geo": null, "coordinates": null, "place": null, "contributors": null, "is_quote_status": false, "retweet_count": 0, "favorite_count": 0, "favorited": false, "retweeted": false, "possibly_sensitive": false, "lang": "en"}
{"created_at": "Mon Oct 04 06:00:01 +0000 2021", "id": 1444905124418277377, "id_str": "1444905124418277377", "full_text": "Treat yourself to some last-minute Run Bournemouth goodies. \n\nWe've got running belts, foldable water bottles, lock laces and much, much more. \n\nToday is the last day to order to guarantee delivery for event weekend - order now before it's too late! \n\nhttps://t.co/Pi1afAoPQ0 https://t.co/VnQ4EI4QHs", "truncated": false, "display_text_range": [0, 275], "entities": {"hashtags": [], "symbols": [], "user_mentions": [], "urls": [{"url": "https://t.co/Pi1afAoPQ0", "expanded_url": "https://www.bournemouthhalfmarathon.com/shop", "display_url": "bournemouthhalfmarathon.com/shop", "indices": [252, 275]}], "media": [{"id": 1443956082938888211, "id_str": "1443956082938888211", "indices": [276, 299], "media_url": "http://pbs.twimg.com/media/FAn2aDLWQBM3Wmk.jpg", "media_url_https": "https://pbs.twimg.com/media/FAn2aDLWQBM3Wmk.jpg", "url": "https://t.co/VnQ4EI4QHs", "display_url": "pic.twitter.com/VnQ4EI4QHs", "expanded_url": "https://twitter.com/BournemouthHalf/status/1444905124418277377/photo/1", "type": "photo", "sizes": {"medium": {"w": 1080, "h": 1080, "resize": "fit"}, "thumb": {"w": 150, "h": 150, "resize": "crop"}, "small": {"w": 680, "h": 680, "resize": "fit"}, "large": {"w": 1080, "h": 1080, "resize": "fit"}}}]}, "extended_entities": {"media": [{"id": 1443956082938888211, "id_str": "1443956082938888211", "indices": [276, 299], "media_url": "http://pbs.twimg.com/media/FAn2aDLWQBM3Wmk.jpg", "media_url_https": "https://pbs.twimg.com/media/FAn2aDLWQBM3Wmk.jpg", "url": "https://t.co/VnQ4EI4QHs", "display_url": "pic.twitter.com/VnQ4EI4QHs", "expanded_url": "https://twitter.com/BournemouthHalf/status/1444905124418277377/photo/1", "type": "photo", "sizes": {"medium": {"w": 1080, "h": 1080, "resize": "fit"}, "thumb": {"w": 150, "h": 150, "resize": "crop"}, "small": {"w": 680, "h": 680, "resize": "fit"}, "large": {"w": 1080, "h": 1080, "resize": "fit"}}}]}, "metadata": {"iso_language_code": "en", "result_type": "recent"}, "source": "<a href=\"https://about.twitter.com/products/tweetdeck\" rel=\"nofollow\">TweetDeck</a>", "in_reply_to_status_id": null, "in_reply_to_status_id_str": null, "in_reply_to_user_id": null, "in_reply_to_user_id_str": null, "in_reply_to_screen_name": null, "user": {"id": 1180125313654824960, "id_str": "1180125313654824960", "name": "Bournemouth Half Marathon", "screen_name": "BournemouthHalf", "location": "Bournemouth, England", "description": "The Bournemouth Half Marathon takes place on Sunday 10th October 2021 and is 'running as it should be' along the beautiful South Coast.", "url": "https://t.co/rXNgoMt5ce", "entities": {"url": {"urls": [{"url": "https://t.co/rXNgoMt5ce", "expanded_url": "http://www.bournemouthhalfmarathon.com", "display_url": "bournemouthhalfmarathon.com", "indices": [0, 23]}]}, "description": {"urls": []}}, "protected": false, "followers_count": 108, "friends_count": 11, "listed_count": 1, "created_at": "Fri Oct 04 14:19:49 +0000 2019", "favourites_count": 84, "utc_offset": null, "time_zone": null, "geo_enabled": false, "verified": false, "statuses_count": 452, "lang": null, "contributors_enabled": false, "is_translator": false, "is_translation_enabled": false, "profile_background_color": "F5F8FA", "profile_background_image_url": null, "profile_background_image_url_https": null, "profile_background_tile": false, "profile_image_url": "http://pbs.twimg.com/profile_images/1181165969466646528/qAXj_cqd_normal.jpg", "profile_image_url_https": "https://pbs.twimg.com/profile_images/1181165969466646528/qAXj_cqd_normal.jpg", "profile_banner_url": "https://pbs.twimg.com/profile_banners/1180125313654824960/1570199110", "profile_link_color": "1DA1F2", "profile_sidebar_border_color": "C0DEED", "profile_sidebar_fill_color": "DDEEF6", "profile_text_color": "333333", "profile_use_background_image": true, "has_extended_profile": false, "default_profile": true, "default_profile_image": false, "following": false, "follow_request_sent": false, "notifications": false, "translator_type": "none", "withheld_in_countries": []}, "geo": null, "coordinates": null, "place": null, "contributors": null, "is_quote_status": false, "retweet_count": 0, "favorite_count": 0, "favorited": false, "retweeted": false, "possibly_sensitive": false, "lang": "en"}
{"created_at": "Sat Oct 02 20:09:22 +0000 2021", "id": 1444394096991350787, "id_str": "1444394096991350787", "full_text": "@katyjem Bournemouth. Yeah was great to be in the water", "truncated": false, "display_text_range": [9, 55], "entities": {"hashtags": [], "symbols": [], "user_mentions": [{"screen_name": "katyjem", "name": "Kaye", "id": 19020092, "id_str": "19020092", "indices": [0, 8]}], "urls": []}, "metadata": {"iso_language_code": "en", "result_type": "recent"}, "source": "<a href=\"https://mobile.twitter.com\" rel=\"nofollow\">Twitter Web App</a>", "in_reply_to_status_id": 1444393221593997314, "in_reply_to_status_id_str": "1444393221593997314", "in_reply_to_user_id": 19020092, "in_reply_to_user_id_str": "19020092", "in_reply_to_screen_name": "katyjem", "user": {"id": 80913814, "id_str": "80913814", "name": "Jon", "screen_name": "Jon_T_R", "location": "New Forest", "description": "Trying to cope & hope. Remembering my son Max, lost to suicide in May.   Also music, travel, lots of food, daftness. #TweetsiwouldveSenttoMax DMs open", "url": null, "entities": {"description": {"urls": []}}, "protected": false, "followers_count": 2228, "friends_count": 1514, "listed_count": 80, "created_at": "Thu Oct 08 18:46:28 +0000 2009", "favourites_count": 141749, "utc_offset": null, "time_zone": null, "geo_enabled": true, "verified": false, "statuses_count": 44008, "lang": null, "contributors_enabled": false, "is_translator": false, "is_translation_enabled": true, "profile_background_color": "000000", "profile_background_image_url": "http://abs.twimg.com/images/themes/theme1/bg.png", "profile_background_image_url_https": "https://abs.twimg.com/images/themes/theme1/bg.png", "profile_background_tile": false, "profile_image_url": "http://pbs.twimg.com/profile_images/1433687580533477379/sqDb_Q3Y_normal.jpg", "profile_image_url_https": "https://pbs.twimg.com/profile_images/1433687580533477379/sqDb_Q3Y_normal.jpg", "profile_banner_url": "https://pbs.twimg.com/profile_banners/80913814/1633206042", "profile_link_color": "1B95E0", "profile_sidebar_border_color": "000000", "profile_sidebar_fill_color": "000000", "profile_text_color": "000000", "profile_use_background_image": false, "has_extended_profile": true, "default_profile": false, "default_profile_image": false, "following": false, "follow_request_sent": false, "notifications": false, "translator_type": "none", "withheld_in_countries": []}, "geo": null, "coordinates": null, "place": null, "contributors": null, "is_quote_status": false, "retweet_count": 0, "favorite_count": 1, "favorited": false, "retweeted": false, "lang": "en"}
{"created_at": "Fri Oct 01 22:29:39 +0000 2021", "id": 1444067010015543297, "id_str": "1444067010015543297", "full_text": "no because i didn\u2019t realise how good mk water was until i drank bournemouth water wtf https://t.co/WtAbKankCA", "truncated": false, "display_text_range": [0, 85], "entities": {"hashtags": [], "symbols": [], "user_mentions": [], "urls": [{"url": "https://t.co/WtAbKankCA", "expanded_url": "https://twitter.com/scamdita/status/1444056858499686405", "display_url": "twitter.com/scamdita/statu\u2026", "indices": [86, 109]}]}, "metadata": {"iso_language_code": "en", "result_type": "recent"}, "source": "<a href=\"http://twitter.com/download/iphone\" rel=\"nofollow\">Twitter for iPhone</a>", "in_reply_to_status_id": null, "in_reply_to_status_id_str": null, "in_reply_to_user_id": null, "in_reply_to_user_id_str": null, "in_reply_to_screen_name": null, "user": {"id": 1379910263038697479, "id_str": "1379910263038697479", "name": "ella", "screen_name": "mainardella", "location": "", "description": "she/her", "url": null, "entities": {"description": {"urls": []}}, "protected": false, "followers_count": 31, "friends_count": 30, "listed_count": 0, "created_at": "Wed Apr 07 21:33:48 +0000 2021", "favourites_count": 500, "utc_offset": null, "time_zone": null, "geo_enabled": false, "verified": false, "statuses_count": 559, "lang": null, "contributors_enabled": false, "is_translator": false, "is_translation_enabled": false, "profile_background_color": "F5F8FA", "profile_background_image_url": null, "profile_background_image_url_https": null, "profile_background_tile": false, "profile_image_url": "http://pbs.twimg.com/profile_images/1426583640939667465/RFx9_goA_normal.jpg", "profile_image_url_https": "https://pbs.twimg.com/profile_images/1426583640939667465/RFx9_goA_normal.jpg", "profile_banner_url": "https://pbs.twimg.com/profile_banners/1379910263038697479/1628959020", "profile_link_color": "1DA1F2", "profile_sidebar_border_color": "C0DEED", "profile_sidebar_fill_color": "DDEEF6", "profile_text_color": "333333", "profile_use_background_image": true, "has_extended_profile": true, "default_profile": true, "default_profile_image": false, "following": false, "follow_request_sent": false, "notifications": false, "translator_type": "none", "withheld_in_countries": []}, "geo": null, "coordinates": null, "place": null, "contributors": null, "is_quote_status": true, "quoted_status_id": 1444056858499686405, "quoted_status_id_str": "1444056858499686405", "quoted_status": {"created_at": "Fri Oct 01 21:49:19 +0000 2021", "id": 1444056858499686405, "id_str": "1444056858499686405", "full_text": "Milton Keynes water &gt;&gt;&gt;", "truncated": false, "display_text_range": [0, 32], "entities": {"hashtags": [], "symbols": [], "user_mentions": [], "urls": []}, "metadata": {"iso_language_code": "en", "result_type": "recent"}, "source": "<a href=\"http://twitter.com/download/iphone\" rel=\"nofollow\">Twitter for iPhone</a>", "in_reply_to_status_id": null, "in_reply_to_status_id_str": null, "in_reply_to_user_id": null, "in_reply_to_user_id_str": null, "in_reply_to_screen_name": null, "user": {"id": 706045685410500608, "id_str": "706045685410500608", "name": "lil nan", "screen_name": "scamdita", "location": "in ur dreams", "description": "I use this like my diary\ud83d\udc96", "url": null, "entities": {"description": {"urls": []}}, "protected": false, "followers_count": 141, "friends_count": 228, "listed_count": 1, "created_at": "Sat Mar 05 09:16:23 +0000 2016", "favourites_count": 25545, "utc_offset": null, "time_zone": null, "geo_enabled": false, "verified": false, "statuses_count": 3057, "lang": null, "contributors_enabled": false, "is_translator": false, "is_translation_enabled": false, "profile_background_color": "F5F8FA", "profile_background_image_url": null, "profile_background_image_url_https": null, "profile_background_tile": false, "profile_image_url": "http://pbs.twimg.com/profile_images/1394339601326690307/Bjp1t9kr_normal.jpg", "profile_image_url_https": "https://pbs.twimg.com/profile_images/1394339601326690307/Bjp1t9kr_normal.jpg", "profile_banner_url": "https://pbs.twimg.com/profile_banners/706045685410500608/1607256424", "profile_link_color": "1DA1F2", "profile_sidebar_border_color": "C0DEED", "profile_sidebar_fill_color": "DDEEF6", "profile_text_color": "333333", "profile_use_background_image": true, "has_extended_profile": true, "default_profile": true, "default_profile_image": false, "following": false, "follow_request_sent": false, "notifications": false, "translator_type": "none", "withheld_in_countries": []}, "geo": null, "coordinates": null, "place": null, "contributors": null, "is_quote_status": false, "retweet_count": 2, "favorite_count": 4, "favorited": false, "retweeted": false, "lang": "en"}, "retweet_count": 0, "favorite_count": 3, "favorited": false, "retweeted": false, "possibly_sensitive": false, "lang": "en"}
{"created_at": "Thu Sep 30 11:13:03 +0000 2021", "id": 1443534350998544392, "id_str": "1443534350998544392", "full_text": "A diet that's good for your physical health is also good for your mental health. A balanced diet includes, fruit &amp; veg, wholegrain cereals or bread, nuts &amp; seeds, diary products, oily fish and plenty of water #goodmentalhealth #counsellor #Bournemouth #Cornwall #wellbeing #Dorset https://t.co/AD8xvqLrXh", "truncated": false, "display_text_range": [0, 288], "entities": {"hashtags": [{"text": "goodmentalhealth", "indices": [217, 234]}, {"text": "counsellor", "indices": [235, 246]}, {"text": "Bournemouth", "indices": [247, 259]}, {"text": "Cornwall", "indices": [260, 269]}, {"text": "wellbeing", "indices": [270, 280]}, {"text": "Dorset", "indices": [281, 288]}], "symbols": [], "user_mentions": [], "urls": [], "media": [{"id": 1443534347739467781, "id_str": "1443534347739467781", "indices": [289, 312], "media_url": "http://pbs.twimg.com/media/FAh211IWEAUhTgi.jpg", "media_url_https": "https://pbs.twimg.com/media/FAh211IWEAUhTgi.jpg", "url": "https://t.co/AD8xvqLrXh", "display_url": "pic.twitter.com/AD8xvqLrXh", "expanded_url": "https://twitter.com/SelfReflectJo/status/1443534350998544392/photo/1", "type": "photo", "sizes": {"thumb": {"w": 150, "h": 150, "resize": "crop"}, "medium": {"w": 1000, "h": 665, "resize": "fit"}, "large": {"w": 1000, "h": 665, "resize": "fit"}, "small": {"w": 680, "h": 452, "resize": "fit"}}}]}, "extended_entities": {"media": [{"id": 1443534347739467781, "id_str": "1443534347739467781", "indices": [289, 312], "media_url": "http://pbs.twimg.com/media/FAh211IWEAUhTgi.jpg", "media_url_https": "https://pbs.twimg.com/media/FAh211IWEAUhTgi.jpg", "url": "https://t.co/AD8xvqLrXh", "display_url": "pic.twitter.com/AD8xvqLrXh", "expanded_url": "https://twitter.com/SelfReflectJo/status/1443534350998544392/photo/1", "type": "photo", "sizes": {"thumb": {"w": 150, "h": 150, "resize": "crop"}, "medium": {"w": 1000, "h": 665, "resize": "fit"}, "large": {"w": 1000, "h": 665, "resize": "fit"}, "small": {"w": 680, "h": 452, "resize": "fit"}}}]}, "metadata": {"iso_language_code": "en", "result_type": "recent"}, "source": "<a href=\"https://buffer.com\" rel=\"nofollow\">Buffer</a>", "in_reply_to_status_id": null, "in_reply_to_status_id_str": null, "in_reply_to_user_id": null, "in_reply_to_user_id_str": null, "in_reply_to_screen_name": null, "user": {"id": 1372536395315707904, "id_str": "1372536395315707904", "name": "Self-Reflection", "screen_name": "SelfReflectJo", "location": "", "description": "I'm Jo Bentley-Walls, I'm a qualified Life Coach & experienced Humanistic Integrative Person-Centred therapeutic counsellor. I am an accredited member of BACP.", "url": null, "entities": {"description": {"urls": []}}, "protected": false, "followers_count": 40, "friends_count": 74, "listed_count": 1, "created_at": "Thu Mar 18 13:12:56 +0000 2021", "favourites_count": 55, "utc_offset": null, "time_zone": null, "geo_enabled": false, "verified": false, "statuses_count": 130, "lang": null, "contributors_enabled": false, "is_translator": false, "is_translation_enabled": false, "profile_background_color": "F5F8FA", "profile_background_image_url": null, "profile_background_image_url_https": null, "profile_background_tile": false, "profile_image_url": "http://pbs.twimg.com/profile_images/1372540663074541573/lWn1GqpL_normal.jpg", "profile_image_url_https": "https://pbs.twimg.com/profile_images/1372540663074541573/lWn1GqpL_normal.jpg", "profile_banner_url": "https://pbs.twimg.com/profile_banners/1372536395315707904/1616074201", "profile_link_color": "1DA1F2", "profile_sidebar_border_color": "C0DEED", "profile_sidebar_fill_color": "DDEEF6", "profile_text_color": "333333", "profile_use_background_image": true, "has_extended_profile": true, "default_profile": true, "default_profile_image": false, "following": false, "follow_request_sent": false, "notifications": false, "translator_type": "none", "withheld_in_countries": []}, "geo": null, "coordinates": null, "place": null, "contributors": null, "is_quote_status": false, "retweet_count": 0, "favorite_count": 0, "favorited": false, "retweeted": false, "possibly_sensitive": false, "lang": "en"}
{"created_at": "Wed Sep 29 20:32:38 +0000 2021", "id": 1443312786516463626, "id_str": "1443312786516463626", "full_text": "@mocent0 If you do Bournemouth then it's gorgeous all that stretch on the water. But it doees service two and only two audiences, young drunks in the summer and old aged pensioners.\n \nThe New Forest is beyond beautiful though, good pubs, lovely walks etc.", "truncated": false, "display_text_range": [9, 255], "entities": {"hashtags": [], "symbols": [], "user_mentions": [{"screen_name": "mocent0", "name": "Mo'", "id": 754716839448633344, "id_str": "754716839448633344", "indices": [0, 8]}], "urls": []}, "metadata": {"iso_language_code": "en", "result_type": "recent"}, "source": "<a href=\"https://mobile.twitter.com\" rel=\"nofollow\">Twitter Web App</a>", "in_reply_to_status_id": 1443282510247571461, "in_reply_to_status_id_str": "1443282510247571461", "in_reply_to_user_id": 754716839448633344, "in_reply_to_user_id_str": "754716839448633344", "in_reply_to_screen_name": "mocent0", "user": {"id": 1297171045363978243, "id_str": "1297171045363978243", "name": "Smoke", "screen_name": "TheLondonSmoke", "location": "London", "description": "Harlequins, #COYQ\n \nOld Glory DC, #OGDC\n\nRTNE", "url": null, "entities": {"description": {"urls": []}}, "protected": false, "followers_count": 420, "friends_count": 1390, "listed_count": 0, "created_at": "Sat Aug 22 13:58:46 +0000 2020", "favourites_count": 52721, "utc_offset": null, "time_zone": null, "geo_enabled": false, "verified": false, "statuses_count": 19474, "lang": null, "contributors_enabled": false, "is_translator": false, "is_translation_enabled": false, "profile_background_color": "F5F8FA", "profile_background_image_url": null, "profile_background_image_url_https": null, "profile_background_tile": false, "profile_image_url": "http://pbs.twimg.com/profile_images/1421247935359111172/CfGab_ln_normal.jpg", "profile_image_url_https": "https://pbs.twimg.com/profile_images/1421247935359111172/CfGab_ln_normal.jpg", "profile_banner_url": "https://pbs.twimg.com/profile_banners/1297171045363978243/1624873458", "profile_link_color": "1DA1F2", "profile_sidebar_border_color": "C0DEED", "profile_sidebar_fill_color": "DDEEF6", "profile_text_color": "333333", "profile_use_background_image": true, "has_extended_profile": true, "default_profile": true, "default_profile_image": false, "following": false, "follow_request_sent": false, "notifications": false, "translator_type": "none", "withheld_in_countries": []}, "geo": null, "coordinates": null, "place": null, "contributors": null, "is_quote_status": false, "retweet_count": 0, "favorite_count": 2, "favorited": false, "retweeted": false, "lang": "en"}
{"created_at": "Wed Sep 29 19:34:01 +0000 2021", "id": 1443298036168413188, "id_str": "1443298036168413188", "full_text": "@BrianDunseth So is OGS just going to sit there drinking water while Danjuma, he of Bournemouth fame, continues to shred Dalot ?", "truncated": false, "display_text_range": [14, 128], "entities": {"hashtags": [], "symbols": [], "user_mentions": [{"screen_name": "BrianDunseth", "name": "Brian Dunseth", "id": 3178603986, "id_str": "3178603986", "indices": [0, 13]}], "urls": []}, "metadata": {"iso_language_code": "en", "result_type": "recent"}, "source": "<a href=\"https://mobile.twitter.com\" rel=\"nofollow\">Twitter Web App</a>", "in_reply_to_status_id": 1443296087503110146, "in_reply_to_status_id_str": "1443296087503110146", "in_reply_to_user_id": 3178603986, "in_reply_to_user_id_str": "3178603986", "in_reply_to_screen_name": "BrianDunseth", "user": {"id": 55554248, "id_str": "55554248", "name": "Hedley", "screen_name": "JuanWooNoz", "location": "Oakland Township MI", "description": "Grandfather, American from London, Tottenham Hotspur, Detroit Lions frustrated, The London School of Economics, Music centric", "url": null, "entities": {"description": {"urls": []}}, "protected": false, "followers_count": 95, "friends_count": 184, "listed_count": 0, "created_at": "Fri Jul 10 13:01:32 +0000 2009", "favourites_count": 11608, "utc_offset": null, "time_zone": null, "geo_enabled": true, "verified": false, "statuses_count": 6633, "lang": null, "contributors_enabled": false, "is_translator": false, "is_translation_enabled": false, "profile_background_color": "C0DEED", "profile_background_image_url": "http://abs.twimg.com/images/themes/theme1/bg.png", "profile_background_image_url_https": "https://abs.twimg.com/images/themes/theme1/bg.png", "profile_background_tile": false, "profile_image_url": "http://pbs.twimg.com/profile_images/1429052457196400649/vbQPzsPU_normal.jpg", "profile_image_url_https": "https://pbs.twimg.com/profile_images/1429052457196400649/vbQPzsPU_normal.jpg", "profile_banner_url": "https://pbs.twimg.com/profile_banners/55554248/1615737851", "profile_link_color": "1DA1F2", "profile_sidebar_border_color": "C0DEED", "profile_sidebar_fill_color": "DDEEF6", "profile_text_color": "333333", "profile_use_background_image": true, "has_extended_profile": false, "default_profile": true, "default_profile_image": false, "following": false, "follow_request_sent": false, "notifications": false, "translator_type": "none", "withheld_in_countries": []}, "geo": null, "coordinates": null, "place": null, "contributors": null, "is_quote_status": false, "retweet_count": 0, "favorite_count": 0, "favorited": false, "retweeted": false, "lang": "en"}
